%!PS-Adobe-2.0 EPSF-2.0
%%BoundingBox: 0 1 503 504
%%HiResBoundingBox: 0.000000 1.000000 502.500000 503.500000
%.........................................
%%Creator: GPL Ghostscript 871 (pswrite)
%%CreationDate: 2011/08/22 11:14:17
%%DocumentData: Clean7Bit
%%LanguageLevel: 2
%%EndComments
% EPSF created by ps2eps 1.64
%%BeginProlog
save
countdictstack
mark
newpath
/showpage {} def
/setpagedevice {pop} def
%%EndProlog
%%Page 1 1
%%BeginProlog
% This copyright applies to everything between here and the %%EndProlog:
% Copyright (C) 2010 Artifex Software, Inc.  All rights reserved.
%%BeginResource: procset GS_pswrite_2_0_1001 1.001 0
/GS_pswrite_2_0_1001 80 dict dup begin
/PageSize 2 array def/setpagesize{ PageSize aload pop 3 index eq exch
4 index eq and{ pop pop pop}{ PageSize dup  1
5 -1 roll put 0 4 -1 roll put dup null eq {false} {dup where} ifelse{ exch get exec}
{ pop/setpagedevice where
{ pop 1 dict dup /PageSize PageSize put setpagedevice}
{ /setpage where{ pop PageSize aload pop pageparams 3 {exch pop} repeat
setpage}if}ifelse}ifelse}ifelse} bind def
/!{bind def}bind def/#{load def}!/N/counttomark #
/rG{3{3 -1 roll 255 div}repeat setrgbcolor}!/G{255 div setgray}!/K{0 G}!
/r6{dup 3 -1 roll rG}!/r5{dup 3 1 roll rG}!/r3{dup rG}!
/w/setlinewidth #/J/setlinecap #
/j/setlinejoin #/M/setmiterlimit #/d/setdash #/i/setflat #
/m/moveto #/l/lineto #/c/rcurveto #
/p{N 2 idiv{N -2 roll rlineto}repeat}!
/P{N 0 gt{N -2 roll moveto p}if}!
/h{p closepath}!/H{P closepath}!
/lx{0 rlineto}!/ly{0 exch rlineto}!/v{0 0 6 2 roll c}!/y{2 copy c}!
/re{4 -2 roll m exch dup lx exch ly neg lx h}!
/^{3 index neg 3 index neg}!
/f{P fill}!/f*{P eofill}!/s{H stroke}!/S{P stroke}!
/q/gsave #/Q/grestore #/rf{re fill}!
/Y{P clip newpath}!/Y*{P eoclip newpath}!/rY{re Y}!
/|={pop exch 4 1 roll 1 array astore cvx 3 array astore cvx exch 1 index def exec}!
/|{exch string readstring |=}!
/+{dup type/nametype eq{2 index 7 add -3 bitshift 2 index mul}if}!
/@/currentfile #/${+ @ |}!
/B{{2 copy string{readstring pop}aload pop 4 array astore cvx
3 1 roll}repeat pop pop true}!
/Ix{[1 0 0 1 11 -2 roll exch neg exch neg]exch}!
/,{true exch Ix imagemask}!/If{false exch Ix imagemask}!/I{exch Ix image}!
/Ic{exch Ix false 3 colorimage}!
/F{/Columns counttomark 3 add -2 roll/Rows exch/K -1/BlackIs1 true>>
/CCITTFaxDecode filter}!/FX{<</EndOfBlock false F}!
/X{/ASCII85Decode filter}!/@X{@ X}!/&2{2 index 2 index}!
/@F{@ &2<<F}!/@C{@X &2 FX}!
/$X{+ @X |}!/&4{4 index 4 index}!/$F{+ @ &4<<F |}!/$C{+ @X &4 FX |}!
/IC{3 1 roll 10 dict begin 1{/ImageType/Interpolate/Decode/DataSource
/ImageMatrix/BitsPerComponent/Height/Width}{exch def}forall
currentdict end image}!
/~{@ read {pop} if}!
end def
%%EndResource
/pagesave null def
%%EndProlog
%%Page: 1 1
%%PageBoundingBox: 0 0 504 504
%%BeginPageSetup
GS_pswrite_2_0_1001 begin
504 504 null setpagesize
/pagesave save store 197 dict begin
0.1 0.1 scale
%%EndPageSetup
gsave mark
Q q
0 0 5040 5040 re
Y
255 233 54 rG
2695.08 4075.29 m
6.88 -81.94 -65.25 -153.82 -86.54 -227.76 c
-40.26 -107.84 4.38 -220.15 23.04 -324 c
-1.38 -10.25 -2.82 -20.69 -10.08 -28.8 c
-46.37 -25.72 -106.85 -4.13 -159.83 -12.96 c
-45.29 4.87 -104.68 -31.12 -135.36 14.4 c
-2.88 34.56 p
28.88 97.73 9.08 215.8 99.36 288 c
86.1 75.02 189.22 186.9 222.29 296.56 c
10.49 13.44 47.17 -31.96 50 -40 c
f
60 w
3.864 M
2695.08 4075.29 m
6.88 -81.94 -65.25 -153.82 -86.54 -227.76 c
-40.26 -107.84 4.38 -220.15 23.04 -324 c
-1.38 -10.25 -2.82 -20.69 -10.08 -28.8 c
-46.37 -25.72 -106.85 -4.13 -159.83 -12.96 c
-45.29 4.87 -104.68 -31.12 -135.36 14.4 c
-2.88 34.56 p
28.88 97.73 9.08 215.8 99.36 288 c
86.1 75.02 189.22 186.9 222.29 296.56 c
10.49 13.44 47.17 -31.96 50 -40 c
h
S
1875.6 4020.32 m
37.56 -83.37 3.37 -191.72 28.79 -280.8 c
33.97 -125.81 182.64 -174.05 246.24 -287.98 c
3.34 -13.49 0.46 -28.25 -8.64 -38.89 c
-40.93 -28.96 -86.28 -47.31 -128.16 -73.43 c
-45.59 -27.88 -88.07 -63.87 -132.47 -93.6 c
-15.35 -6.27 -32.62 -6.27 -47.52 0 c
-45.22 38.01 -58.54 94.52 -80.64 143.99 c
-16.41 92.72 -62.61 220.1 -18.12 315.68 c
37.58 89.08 50.17 158.31 68.75 255 c
4.52 32.29 25.11 92.92 37.21 90.27 c
13.45 -4.55 26.41 -17.51 34.56 -30.24 c
f
1875.6 4020.32 m
37.56 -83.37 3.37 -191.72 28.79 -280.8 c
33.97 -125.81 182.64 -174.05 246.24 -287.98 c
3.34 -13.49 0.46 -28.25 -8.64 -38.89 c
-40.93 -28.96 -86.28 -47.31 -128.16 -73.43 c
-45.59 -27.88 -88.07 -63.87 -132.47 -93.6 c
-15.35 -6.27 -32.62 -6.27 -47.52 0 c
-45.22 38.01 -58.54 94.52 -80.64 143.99 c
-16.41 92.72 -62.61 220.1 -18.12 315.68 c
37.58 89.08 50.17 158.31 68.75 255 c
4.52 32.29 25.11 92.92 37.21 90.27 c
13.45 -4.55 26.41 -17.51 34.56 -30.24 c
h
S
3309.81 3749.61 m
-9.38 -45.19 -60.13 -63.19 -87.84 -99.36 c
-73.43 -86.94 -92.16 -196.72 -128.15 -299.52 c
-6.49 -10.23 -16.2 -19.23 -27.36 -21.6 c
-29.16 -2.67 -49.31 14.97 -72.01 25.93 c
-47.86 32.95 -107.24 43.39 -148.31 84.95 c
-15.45 40.51 19.1 71.47 25.92 108 c
22.71 67.14 61.22 149.57 138.23 172.8 c
68.05 51.28 167.4 26.8 250.56 43.2 c
17.63 -0.2 40.3 3.4 48.96 -14.4 c
f
3309.81 3749.61 m
-9.38 -45.19 -60.13 -63.19 -87.84 -99.36 c
-73.43 -86.94 -92.16 -196.72 -128.15 -299.52 c
-6.49 -10.23 -16.2 -19.23 -27.36 -21.6 c
-29.16 -2.67 -49.31 14.97 -72.01 25.93 c
-47.86 32.95 -107.24 43.39 -148.31 84.95 c
-15.45 40.51 19.1 71.47 25.92 108 c
22.71 67.14 61.22 149.57 138.23 172.8 c
68.05 51.28 167.4 26.8 250.56 43.2 c
17.63 -0.2 40.3 3.4 48.96 -14.4 c
h
S
1321.21 3432.81 m
35.46 -51.63 17.47 -126.14 48.96 -180 c
30.42 -65.65 99.89 -99.13 169.91 -100.79 c
66.77 2.39 124.36 26.86 188.64 36 c
15.99 1.3 31.1 -0.5 43.2 -10.08 c
6.62 -9.14 10.94 -21.01 7.2 -33.12 c
-20.01 -41.17 -54.93 -76.09 -77.76 -116.64 c
-34.4 -50.16 -53.84 -106.66 -84.96 -158.4 c
-9.2 -12.7 -23.95 -18.82 -38.88 -20.15 c
-52.03 3.85 -92.7 34.81 -148.32 28.79 c
-46.25 -1.18 -93.4 7.1 -115.19 51.84 c
-68.92 116.16 24.67 282.82 -63.36 390.24 c
-17.8 42.32 -84.39 75.07 -53.28 126.71 c
35.12 23.95 94.51 19.99 123.84 -14.4 c
f
1321.21 3432.81 m
35.46 -51.63 17.47 -126.14 48.96 -180 c
30.42 -65.65 99.89 -99.13 169.91 -100.79 c
66.77 2.39 124.36 26.86 188.64 36 c
15.99 1.3 31.1 -0.5 43.2 -10.08 c
6.62 -9.14 10.94 -21.01 7.2 -33.12 c
-20.01 -41.17 -54.93 -76.09 -77.76 -116.64 c
-34.4 -50.16 -53.84 -106.66 -84.96 -158.4 c
-9.2 -12.7 -23.95 -18.82 -38.88 -20.15 c
-52.03 3.85 -92.7 34.81 -148.32 28.79 c
-46.25 -1.18 -93.4 7.1 -115.19 51.84 c
-68.92 116.16 24.67 282.82 -63.36 390.24 c
-17.8 42.32 -84.39 75.07 -53.28 126.71 c
35.12 23.95 94.51 19.99 123.84 -14.4 c
h
S
3321.33 2914.42 m
146.84 -286.99 110.13 -696.61 -96.48 -944.62 c
-227.14 -288.69 -577.74 -398.85 -931.66 -316.8 c
-291.83 63.74 -575.12 345.24 -639.35 636.47 c
-95.59 383.68 49.47 763.43 380.15 982.07 c
260.37 182.35 682.59 185.59 948.95 12.95 c
138.59 -84.37 271.42 -226.19 338.39 -370.07 c
f
3321.33 2914.42 m
146.84 -286.99 110.13 -696.61 -96.48 -944.62 c
-227.14 -288.69 -577.74 -398.85 -931.66 -316.8 c
-291.83 63.74 -575.12 345.24 -639.35 636.47 c
-95.59 383.68 49.47 763.43 380.15 982.07 c
260.37 182.35 682.59 185.59 948.95 12.95 c
138.59 -84.37 271.42 -226.19 338.39 -370.07 c
h
S
3838.28 3226.9 m
8.57 -6.26 19.01 -15.98 15.84 -27.36 c
-35.71 -30.74 -83.94 -1.22 -128.16 -8.64 c
-130.36 -5.9 -246.63 -90.85 -312.47 -205.92 c
-9.75 -10.19 -27.03 -10.19 -38.88 -5.76 c
-15.84 12.96 p
-37.82 58.56 -76.34 116.51 -120.96 171.36 c
-10.09 14.62 -8.65 36.94 -4.31 53.28 c
60.09 116.84 185 137.72 302.39 148.31 c
126.3 16.77 197.57 -100.22 302.39 -138.23 c
f
3838.28 3226.9 m
8.57 -6.26 19.01 -15.98 15.84 -27.36 c
-35.71 -30.74 -83.94 -1.22 -128.16 -8.64 c
-130.36 -5.9 -246.63 -90.85 -312.47 -205.92 c
-9.75 -10.19 -27.03 -10.19 -38.88 -5.76 c
-15.84 12.96 p
-37.82 58.56 -76.34 116.51 -120.96 171.36 c
-10.09 14.62 -8.65 36.94 -4.31 53.28 c
60.09 116.84 185 137.72 302.39 148.31 c
126.3 16.77 197.57 -100.22 302.39 -138.23 c
h
S
3841.16 2705.63 m
44.56 -79.64 98.91 -169.63 185.75 -218.88 c
17.19 -9.78 39.14 -17.69 48.97 -38.88 c
4.22 -15.18 -6.58 -28.13 -18.72 -33.13 c
-69.21 -15.88 -116.73 45.32 -174.24 67.7 c
-77.83 33.41 -180.06 62.2 -263.52 23.03 c
-40.01 -9.42 -72.04 -51.9 -116.64 -36 c
-12.63 8.57 -17.31 22.27 -18.72 36 c
-1.47 67.97 -7.95 133.48 -17.27 197.28 c
2.12 13.59 5 26.91 14.39 37.44 c
53.24 30.86 120.56 29.42 182.88 40.31 c
71.21 5.31 134.92 -14.13 177.12 -74.87 c
f
3841.16 2705.63 m
44.56 -79.64 98.91 -169.63 185.75 -218.88 c
17.19 -9.78 39.14 -17.69 48.97 -38.88 c
4.22 -15.18 -6.58 -28.13 -18.72 -33.13 c
-69.21 -15.88 -116.73 45.32 -174.24 67.7 c
-77.83 33.41 -180.06 62.2 -263.52 23.03 c
-40.01 -9.42 -72.04 -51.9 -116.64 -36 c
-12.63 8.57 -17.31 22.27 -18.72 36 c
-1.47 67.97 -7.95 133.48 -17.27 197.28 c
2.12 13.59 5 26.91 14.39 37.44 c
53.24 30.86 120.56 29.42 182.88 40.31 c
71.21 5.31 134.92 -14.13 177.12 -74.87 c
h
S
1172.89 2630.75 m
67.16 -60.91 141.98 -88.57 237.19 -65.46 c
42.29 7.13 79.78 -1.57 124.25 -7.98 c
36.16 -38.23 13.84 -103.37 24.47 -154.07 c
-1.99 -18.77 -10.63 -37.5 -28.8 -47.52 c
-44.92 -40.43 -140.21 -86.19 -214.92 -40.43 c
-104.2 102.17 -223.33 272.91 -363.94 309.7 c
-23.17 7.48 -52.69 1.72 -69.12 21.6 c
11.75 36.27 53.15 43.47 86.39 48.96 c
77.63 1.71 141.34 -30.68 204.48 -64.8 c
f
1172.89 2630.75 m
67.16 -60.91 141.98 -88.57 237.19 -65.46 c
42.29 7.13 79.78 -1.57 124.25 -7.98 c
36.16 -38.23 13.84 -103.37 24.47 -154.07 c
-1.99 -18.77 -10.63 -37.5 -28.8 -47.52 c
-44.92 -40.43 -140.21 -86.19 -214.92 -40.43 c
-104.2 102.17 -223.33 272.91 -363.94 309.7 c
-23.17 7.48 -52.69 1.72 -69.12 21.6 c
11.75 36.27 53.15 43.47 86.39 48.96 c
77.63 1.71 141.34 -30.68 204.48 -64.8 c
h
S
3622.29 2217.48 m
91.37 -93.99 62.57 -237.97 74.87 -365.76 c
-4.32 -12.95 -8.64 1.44 p
-73.85 80.63 -164.77 100.02 -269.12 105.08 c
-28.11 1.43 -59.93 25.94 -69.27 54.75 c
1.44 25.91 p
36.33 65.51 65.48 133.89 92.15 203.05 c
7.89 15.08 21.93 27.68 38.88 30.24 c
52.88 -0.77 102.91 -10.12 144.01 -41.76 c
f
3622.29 2217.48 m
91.37 -93.99 62.57 -237.97 74.87 -365.76 c
-4.32 -12.95 -8.64 1.44 p
-73.85 80.63 -164.77 100.02 -269.12 105.08 c
-28.11 1.43 -59.93 25.94 -69.27 54.75 c
1.44 25.91 p
36.33 65.51 65.48 133.89 92.15 203.05 c
7.89 15.08 21.93 27.68 38.88 30.24 c
52.88 -0.77 102.91 -10.12 144.01 -41.76 c
h
S
1676.88 2046.11 m
22.11 -57.6 112.46 -106.91 61.92 -175.66 c
-44.49 -37.45 -80.12 -95.75 -138.24 -99.36 c
-138.42 -11.87 -233.81 88.2 -368.63 87.83 c
-53.43 5.76 -99.15 -7.91 -146.88 -15.84 c
-9.86 -1.79 -17.42 4.32 -21.6 11.53 c
3.1 43.92 51.34 58.67 84.96 69.12 c
140.59 17.99 297.53 -2.89 411.83 79.2 c
36.52 20.13 70.72 84.94 116.64 43.18 c
f
1676.88 2046.11 m
22.11 -57.6 112.46 -106.91 61.92 -175.66 c
-44.49 -37.45 -80.12 -95.75 -138.24 -99.36 c
-138.42 -11.87 -233.81 88.2 -368.63 87.83 c
-53.43 5.76 -99.15 -7.91 -146.88 -15.84 c
-9.86 -1.79 -17.42 4.32 -21.6 11.53 c
3.1 43.92 51.34 58.67 84.96 69.12 c
140.59 17.99 297.53 -2.89 411.83 79.2 c
36.52 20.13 70.72 84.94 116.64 43.18 c
h
S
3315.57 1697.65 m
18.7 -68 23.93 -140.78 4.51 -202.36 c
-36.73 -103.26 -131.95 -201.13 -98.11 -323.24 c
8.63 -22.23 22.31 -44.55 17.28 -71.99 c
-7.93 -12.52 -25.57 -12.15 -38.88 -10.08 c
-44.28 19.53 -72.36 64.88 -77.75 109.43 c
20.15 203.05 p
-2.52 79.96 -39.6 147.26 -102.23 198.71 c
-16.56 15.51 -40.32 28.48 -44.64 50.39 c
-2.51 14.43 2.89 25.23 11.51 34.57 c
54.02 38.54 108.36 77.05 161.28 119.51 c
13.67 7.21 33.83 11.17 48.96 2.89 c
40.31 -23.03 84.58 -65.15 97.92 -110.88 c
f
3315.57 1697.65 m
18.7 -68 23.93 -140.78 4.51 -202.36 c
-36.73 -103.26 -131.95 -201.13 -98.11 -323.24 c
8.63 -22.23 22.31 -44.55 17.28 -71.99 c
-7.93 -12.52 -25.57 -12.15 -38.88 -10.08 c
-44.28 19.53 -72.36 64.88 -77.75 109.43 c
20.15 203.05 p
-2.52 79.96 -39.6 147.26 -102.23 198.71 c
-16.56 15.51 -40.32 28.48 -44.64 50.39 c
-2.51 14.43 2.89 25.23 11.51 34.57 c
54.02 38.54 108.36 77.05 161.28 119.51 c
13.67 7.21 33.83 11.17 48.96 2.89 c
40.31 -23.03 84.58 -65.15 97.92 -110.88 c
h
S
3753.32 1748.04 m
22.61 -37.77 69.77 -63.34 89.28 -102.22 c
1.73 -12.58 -2.24 -25.55 -14.4 -30.26 c
-28.15 -11.48 -55.87 2.19 -77.76 15.84 c
-47.58 38.91 -60.54 103.34 -44.64 159.85 c
20.1 -5.75 31.26 -28.42 47.52 -43.21 c
f
3753.32 1748.04 m
22.61 -37.77 69.77 -63.34 89.28 -102.22 c
1.73 -12.58 -2.24 -25.55 -14.4 -30.26 c
-28.15 -11.48 -55.87 2.19 -77.76 15.84 c
-47.58 38.91 -60.54 103.34 -44.64 159.85 c
20.1 -5.75 31.26 -28.42 47.52 -43.21 c
h
S
2003.75 1706.29 m
46.56 -31.29 97.67 -52.17 145.44 -82.07 c
42.58 -50.02 16.83 -111.02 0.89 -158.93 c
-55.69 -123.79 -213.16 -140.9 -323.44 -175.16 c
-91.65 -0.66 -164.36 -46.73 -237.6 -92.14 c
-10.99 -3.54 -27.91 -4.99 -37.44 1.42 c
-22.15 20.24 -18.55 54.06 -14.4 80.65 c
29.69 106.6 123.51 164.76 197.88 230.23 c
63.49 50.08 181.68 82.64 173.64 174.39 c
1.92 19.46 4.09 43.58 25.91 48.97 c
28.57 4.69 46.57 -16.19 69.12 -27.36 c
f
2003.75 1706.29 m
46.56 -31.29 97.67 -52.17 145.44 -82.07 c
42.58 -50.02 16.83 -111.02 0.89 -158.93 c
-55.69 -123.79 -213.16 -140.9 -323.44 -175.16 c
-91.65 -0.66 -164.36 -46.73 -237.6 -92.14 c
-10.99 -3.54 -27.91 -4.99 -37.44 1.42 c
-22.15 20.24 -18.55 54.06 -14.4 80.65 c
29.69 106.6 123.51 164.76 197.88 230.23 c
63.49 50.08 181.68 82.64 173.64 174.39 c
1.92 19.46 4.09 43.58 25.91 48.97 c
28.57 4.69 46.57 -16.19 69.12 -27.36 c
h
S
2715.1 1552.2 m
26.68 -34.88 49.26 -112.22 54.98 -156.91 c
-2.12 -62.23 -94.46 -127.05 -130 -135 c
-102.9 -75.53 -216.14 -139.63 -256.17 -259.59 c
-8.56 -10.35 -20.08 -23.67 -34.56 -18.71 c
-27.27 25.29 -10.72 70.27 -2.88 99.35 c
32.12 83.6 119.58 144.07 161.27 223.19 c
25.99 81.05 -44.56 139.72 -87.83 200.15 c
-4.97 11.22 -10.01 27.06 -1.44 37.45 c
11.95 15.52 31.39 12.28 48.96 14.39 c
77.09 -7.87 149.45 9.4 224.63 7.21 c
23.04 -11.53 p f
2715.1 1552.2 m
26.68 -34.88 49.26 -112.22 54.98 -156.91 c
-2.12 -62.23 -94.46 -127.05 -130 -135 c
-102.9 -75.53 -216.14 -139.63 -256.17 -259.59 c
-8.56 -10.35 -20.08 -23.67 -34.56 -18.71 c
-27.27 25.29 -10.72 70.27 -2.88 99.35 c
32.12 83.6 119.58 144.07 161.27 223.19 c
25.99 81.05 -44.56 139.72 -87.83 200.15 c
-4.97 11.22 -10.01 27.06 -1.44 37.45 c
11.95 15.52 31.39 12.28 48.96 14.39 c
77.09 -7.87 149.45 9.4 224.63 7.21 c
23.04 -11.53 h
S
Q q
0 1.96094 5030 5030 re
Y
K
4418.58 4164.32 m
550.6 -628.72 755.78 -1527.53 512.64 -2358.68 c
-165.41 -598.24 -631.91 -1192.15 -1206.7 -1497.56 c
-500.76 -277.73 -1142.92 -385.7 -1742.37 -252.01 c
-661.83 137.35 -1303.99 587.29 -1653.08 1212.46 c
-306.38 526.33 -420.13 1223.21 -257.76 1851.81 c
150.07 654.27 642.48 1305.78 1270.06 1622.85 c
501.6 269.3 1155.28 370.09 1746.69 224.63 c
503.93 -121.26 958.2 -380.44 1330.52 -803.5 c
f
255 G
4438.75 4013.12 m
485.8 -604.23 644.54 -1491.16 393.11 -2255 c
-166.12 -542.07 -602.75 -1083.81 -1124.61 -1367.97 c
-540 -319.12 -1318.23 -403.36 -1935.33 -194.39 c
-565.7 166.83 -1129.03 631.17 -1408.29 1176.44 c
-302.07 536.04 -373.34 1311.02 -161.28 1910.85 c
177.05 581.55 682.79 1167.19 1251.34 1427.02 c
477.83 243.75 1121.08 307.82 1667.48 167.04 c
503.94 -130.62 965.04 -417.87 1317.58 -863.99 c
f
Q q
0 0 5040 5040 re
Y
K
2527.91 4761.91 m
-34.86 -49.62 -17.58 -120.89 -25.93 -181.44 c
1.15 -18.28 7.27 -34.84 23.05 -47.52 c
21.3 -13.24 53.33 -17.56 77.75 -7.2 c
61.61 41.48 30.66 128.95 43.21 194.4 c
0.41 15.9 -26.96 33.17 -4.33 44.64 c
19.13 -0.67 40.73 2.93 56.16 -8.64 c
2.57 -13.62 -11.47 -20.46 -14.4 -31.68 c
-22.27 -83.45 22.36 -218.79 -95.04 -239.04 c
-51.42 -5.31 -105.41 2.61 -131.04 50.4 c
-23.32 59.84 1.16 124.98 -4.31 190.08 c
4.75 19.14 -29.09 35.33 -4.32 48.96 c
25.26 -6.43 62.34 8.69 79.2 -12.96 c
f
3036.21 4694.23 54.73 -152.64 P
5.76 -9.28 15.84 -12.88 23.03 -2.88 c
12.6 32.48 21.24 66.31 25.92 102.24 c
1.44 15.91 -22.31 26.7 -8.64 41.76 c
18.72 -0.3 38.15 -3.54 50.4 -18.72 c
-5.04 -46.73 -24.48 -87.41 -33.11 -132.48 c
-10.08 -39.15 -15.12 -80.55 -28.8 -118.07 c
-6.49 -6.03 -16.93 -7.11 -24.49 -4.33 c
-12.96 3.34 -18.71 17.01 -23.03 27.36 c
-67.69 191.52 p
-3.58 7.27 -12.22 12.31 -18.71 10.08 c
-11.52 -15.84 -30.25 -125.28 p
-5.73 -20.07 16.22 -30.51 11.53 -48.96 c
-19.43 -2.07 -41.38 1.17 -53.29 17.28 c
1.45 21.6 p
16.94 67.04 41.78 131.11 50.4 201.6 c
1.82 13.74 -17.63 28.86 0 38.88 c
27.74 -8.94 66.25 -2.47 82.07 -33.12 c
f
1877.04 4630.87 m
1.57 -7.49 -2.39 -16.13 -10.08 -15.84 c
-25.78 16.27 -62.14 23.83 -89.28 5.76 c
-11.74 -8.93 -17.86 -20.09 -18.72 -33.12 c
0.5 -13.96 7.71 -28 21.6 -34.56 c
57.74 -9.28 142.68 10.16 158.4 -64.8 c
9.48 -31.23 -2.76 -60.38 -24.48 -82.08 c
-31.91 -32.3 -77.26 -30.86 -115.2 -47.52 c
-24.7 6.58 -29.02 36.1 -38.88 56.16 c
-0.94 5.14 2.31 9.82 7.2 11.52 c
23.18 -6.38 39.74 -29.06 67.68 -24.47 c
23.53 2.96 49.09 16.28 57.6 40.31 c
3.73 13.05 -0.59 26.01 -7.2 36 c
-37.67 31.41 -99.58 4.05 -139.68 28.8 c
-22.89 14.48 -33.69 38.96 -34.56 64.8 c
-0.93 29.23 15.27 54.07 38.88 70.56 c
25.7 20.22 60.98 17.71 89.28 31.68 c
23.53 -0.66 27.85 -27.65 37.44 -43.2 c
f
3505.64 4535.83 m
3.21 -19 -19.12 -18.64 -27.36 -30.24 c
-31.35 -54.63 -57.63 -111.5 -83.51 -168.47 c
-7.59 -15.38 8.97 -37.7 -8.64 -46.08 c
-24.15 6.94 -45.39 20.26 -67.68 30.24 c
-18.74 21.33 18.7 21.7 25.92 38.87 c
79.19 159.84 p
8.98 15.92 -7.58 38.6 8.65 50.4 c
25.89 -7.12 50.36 -18.64 73.43 -34.56 c
f
1550.17 4397.6 m
23.56 -40.23 30.04 -100.34 0 -139.68 c
-39.43 -55.33 -100.62 -69.36 -151.21 -102.24 c
-25 0.48 -6.29 31.79 -15.83 44.64 c
-89.28 149.76 p
-8.44 20.97 -39.04 16.29 -38.88 38.88 c
70.75 42.2 143.82 123.55 234.71 74.87 c
25.74 -14.67 46.25 -41.67 60.49 -66.23 c
f
255 G
1496.88 4374.55 m
17.46 -27.98 26.82 -66.49 15.84 -99.35 c
-9.9 -24.02 -35.46 -46.69 -60.47 -51.84 c
-30.79 1.55 -36.18 36.1 -51.84 54.72 c
-61.92 105.12 p
-3.77 10.89 -0.89 22.77 8.64 30.24 c
25.02 16.64 57.42 28.88 89.28 17.28 c
23.93 -9.27 47.69 -33.03 60.47 -56.17 c
f
K
3737.48 4414.87 m
19.74 -18.26 43.49 -29.78 61.92 -50.39 c
1.01 -17.54 -19.87 -12.5 -27.36 -23.04 c
-22.74 -41.3 -32.11 -88.09 -47.52 -132.48 c
-1.14 -7.44 -0.07 -14.29 7.2 -18.72 c
15.84 1.44 p
38.09 27.47 82.72 45.83 115.19 82.08 c
7.13 9.47 -4.39 27.82 10.09 33.12 c
15.75 -5.3 31.23 -16.46 43.2 -30.24 c
5.32 -15.37 -13.04 -26.53 -23.04 -34.56 c
-68.83 -39.85 -137.59 -80.16 -203.04 -126.72 c
-13.02 -2.39 -22.01 3.72 -30.23 10.08 c
-14.82 10.2 -9.42 28.2 -5.77 41.76 c
64.8 200.16 p
10.02 17.73 -18.06 59.48 18.72 47.51 c
f
4195.39 3205.3 m
136.67 -330.22 178.43 -761.08 80.65 -1123.17 c
-110.28 -462.21 -448.64 -922.6 -892.79 -1154.87 c
-403.18 -233.14 -978.75 -287.87 -1434.21 -131.03 c
-436.86 133.65 -873.85 510.52 -1068.46 937.42 c
-209.62 410.72 -238.77 997.09 -60.48 1431.33 c
150.71 434.33 561.77 858 992.14 1026.7 c
431 197.37 1041.13 186.57 1463.01 -24.48 c
395.22 -169.78 767.41 -564.29 920.14 -961.9 c
f
255 G
2579.75 4236.32 m
10.86 -36.97 -18.67 -64.33 -24.49 -97.92 c
-16.85 -77.99 -41.69 -152.86 -105.11 -211.68 c
-86.32 -93.44 -214.47 -170.83 -211.68 -303.83 c
-1.35 -31.14 5.86 -70.02 -23.04 -86.4 c
-17.18 -1.25 -30.14 7.03 -41.76 17.28 c
-53.53 50.94 -122.28 89.09 -159.84 152.64 c
-27.96 56.32 -33.71 123.27 -21.59 188.64 c
1.55 81.49 -37.68 153.48 -108 197.27 c
-5.99 8.41 -13.19 18.13 -8.64 28.8 c
33.6 43.32 91.92 45.48 139.67 64.8 c
165.7 49.43 342.44 77.5 529.92 70.56 c
12.29 -4.21 26.69 -7.09 34.56 -20.16 c
f
3067.89 4171.52 m
120.96 -41.28 238.3 -92.03 348.48 -161.28 c
11.84 -9.58 24.44 -21.82 25.92 -37.44 c
1.04 -41.62 -44.67 -64.29 -70.56 -90.72 c
-105.85 -71.84 -251.28 -46.64 -364.32 -99.35 c
-94.29 -25.04 -193.64 -100.99 -218.87 -200.16 c
-5.73 -16.02 -13.29 -34.37 -30.24 -43.2 c
-14.35 -3.77 -28.76 -0.17 -37.44 11.52 c
-30.55 58.86 -60.07 121.13 -48.96 192.95 c
32.81 93.4 78.88 180.87 99.36 279.36 c
3.63 62.41 -37.04 109.56 -59.04 162.72 c
-3.2 18.83 -3.91 42.59 17.28 50.4 c
16.24 7.67 38.92 4.07 57.6 2.88 c
96.14 -15.37 189.74 -37.68 280.79 -67.68 c
f
K
1193.05 4050.56 m
12.8 -9.59 37.28 2.65 44.64 -14.4 c
-2.88 -8.64 -59.04 -53.28 p
-9.51 -3.1 -14.55 4.46 -15.84 11.52 c
-0.15 30.74 -34.71 38.66 -54.72 50.4 c
-32.54 2.65 -54.86 -30.46 -72 -51.84 c
-0.13 -27.94 11.02 -52.05 31.68 -70.56 c
8.14 -2.37 18.58 0.51 24.49 -8.64 c
-2.67 -18.57 -23.91 -29.73 -37.45 -40.31 c
-12.74 -2.73 -17.41 9.86 -23.03 17.27 c
-76.32 194.4 p
-4.46 22.8 -47.29 14.89 -31.69 41.76 c
23.28 13.44 39.83 52.32 70.56 40.32 c
201.6 -108 p f
4117.64 4100.96 m
36.96 -43.07 75.12 -87.34 116.63 -128.16 c
3.48 -18.57 -15.95 -32.26 -28.8 -44.63 c
-7.67 -1.3 -15.59 1.58 -15.84 8.63 c
3.5 38.3 -23.51 68.54 -51.84 87.84 c
-24.94 1.93 -42.58 -22.54 -54.71 -40.32 c
-0.82 -24.34 24.73 -44.49 44.63 -54.72 c
8.9 -0.57 18.98 -3.09 24.49 -11.52 c
-3.71 -19.65 -25.68 -30.09 -38.89 -43.2 c
-7.66 -3.8 -17.73 1.95 -17.27 10.08 c
1.33 27.51 -19.91 48.03 -40.33 63.36 c
-28.89 4.47 -49.05 -26.49 -66.24 -46.08 c
-12.32 -30.45 21.87 -48.8 40.32 -70.56 c
16.11 -15.32 42.03 -12.8 61.93 -17.27 c
3.49 -23.25 -26.03 -28.28 -38.89 -41.76 c
-14.39 0 -129.6 145.43 p
-5.13 6.63 1.36 13.1 7.2 15.84 c
23.67 -2.38 39.87 14.91 57.59 28.8 c
112.33 103.68 p
13.93 10.21 4.22 50.53 31.68 34.56 c
f
255 G
1047.61 4059.2 m
0.22 -12.47 -10.21 -24.71 -21.59 -28.8 c
-11.3 -2.75 -20.66 5.54 -24.49 14.4 c
-3.73 13.45 -18.13 31.09 -4.31 43.2 c
21.1 1.21 40.53 -11.03 50.39 -28.8 c
f
1744.56 4043.36 m
29.3 -24.71 15.26 -53.33 12.96 -96.48 c
-49.53 -81.2 -44.85 -185.23 -95.04 -266.39 c
-20.36 -81.54 4.83 -165.77 17.28 -244.8 c
8.79 -45.87 26.79 -87.99 40.32 -132.48 c
0.15 -13.46 0.51 -27.14 -7.2 -37.44 c
-33.32 -25.34 -76.16 -26.78 -115.2 -37.43 c
-32.59 -3.03 -72.55 -8.06 -99.35 10.08 c
-26.47 25.05 -14.23 66.45 -27.36 96.47 c
-19.63 77.6 -86.22 154.27 -161.28 185.76 c
-44.08 20.35 -99.88 16.74 -148.32 8.64 c
-12.75 2.35 -24.99 8.1 -27.36 21.6 c
-0.15 27.9 20.01 46.98 36 67.68 c
151.03 184.47 335.33 337.1 532.79 434.87 c
15.63 1.21 30.39 -0.23 41.76 -10.08 c
f
K
782.66 3880.65 m
-2.99 -26.49 -37.91 -6.69 -48.96 -28.81 c
-10.18 -7.76 -15.22 -21.8 -8.64 -33.11 c
46.69 -39.44 96.36 -77.6 146.88 -112.32 c
11.03 -13.16 49.91 5.2 40.32 -24.48 c
-17.41 -17.83 -26.77 -43.03 -47.52 -56.16 c
-17.04 0.54 -13.44 19.25 -20.16 28.8 c
-48.35 44.81 -100.19 79.72 -151.2 116.64 c
-14.86 5.92 -28.18 -6.33 -34.56 -18.72 c
-15.57 -14.96 14.66 -57.79 -20.16 -50.4 c
-11.25 12.4 -35.01 23.92 -27.36 43.2 c
39.51 51.64 80.54 102.75 116.64 155.51 c
19.33 13.83 39.85 -8.13 54.72 -20.15 c
f
255 G
3622.29 3864.81 m
173.08 -143.84 318.14 -317.69 416.15 -502.56 c
4.94 -12.03 0.97 -26.43 -1.45 -38.87 c
-28.52 -27.15 -69.56 -28.59 -103.67 -43.2 c
-85.04 -2.67 -127.51 97.04 -203.04 115.19 c
-92.57 40.16 -205.95 58.16 -308.15 28.8 c
-64.1 -14.92 -117.74 -54.51 -174.24 -86.39 c
-11.17 -2.32 -24.13 -7.36 -34.56 -1.45 c
-24.84 29.73 -3.6 68.96 1.45 100.8 c
44.61 109.99 147.56 208.61 249.11 275.04 c
51.79 41.2 56.83 102.03 64.79 161.27 c
3.92 11.31 12.92 25.71 27.36 25.92 c
27.32 2.31 44.96 -20.01 66.25 -34.55 c
f
K
4399.86 3749.61 m
30.11 -61.75 116.5 -125.11 59.05 -198.72 c
-20.66 -18.53 -47.66 -20.69 -73.44 -14.4 c
-27.49 -8.09 -23.89 -39.05 -41.76 -56.16 c
-21.73 -23.92 -36.12 -50.56 -38.88 -82.08 c
-3.37 -3.39 -9.84 -3.39 -12.96 -1.44 c
-12 21.08 -38.64 39.44 -25.92 66.24 c
24.35 44.83 85.91 84.78 56.16 141.12 c
-30 22.14 -57 -13.14 -82.08 -25.92 c
-23.15 -8.46 -8.4 -48.77 -36 -38.88 c
-40.32 70.56 p
3.14 19.25 24.73 5.57 38.88 11.52 c
56.4 31.49 113.27 62.81 167.04 102.24 c
11.39 8.08 9.59 37.96 30.23 25.92 c
f
255 G
4430.11 3644.49 m
2.38 -12.07 6.7 -27.18 0 -38.88 c
-4.82 -10.62 -16.34 -16.74 -25.92 -20.16 c
-24.26 -4.14 -41.53 15.66 -51.84 33.12 c
-8.05 17.1 4.54 31.49 18.71 38.88 c
16.08 18.53 54.23 17.09 59.05 -12.96 c
f
K
540.74 3487.53 m
-8.72 -24.29 -43.64 -14.56 -56.16 -38.88 c
-14.47 -14.56 -20.95 -38.32 -11.51 -57.6 c
8.91 -17.79 28.35 -21.39 46.08 -17.28 c
43.11 25.05 72.98 86.6 129.59 74.88 c
24.38 -7.36 52.82 -23.56 61.92 -50.4 c
22.57 -55.95 -19.18 -103.1 -41.76 -149.75 c
-20.26 -18.51 -45.09 3.81 -66.24 8.64 c
-5.13 3.81 -8.37 9.93 -5.76 14.4 c
9.99 16.41 34.11 4.17 47.52 15.84 c
22.22 13.89 35.18 36.2 37.44 60.47 c
-0.46 13.53 -3.7 25.77 -14.4 34.56 c
-9.46 9.2 -24.21 10.28 -36 8.64 c
-47.97 -20.31 -77.12 -90.5 -138.24 -74.88 c
-28.51 8.85 -56.23 36.57 -60.48 66.24 c
-5.83 50.6 28.73 84.79 50.41 123.84 c
18.99 2.71 44.19 -1.61 57.59 -18.72 c
f
255 G
1136.89 3336.33 m
75.81 -119.29 -9.87 -300.35 79.2 -414.71 c
56.36 -89.38 153.91 -109.53 250.56 -118.07 c
11.33 -4.42 25.01 -6.94 31.68 -20.16 c
12.41 -46.53 -41.59 -69.57 -57.6 -106.56 c
-15.66 -30.68 -39.78 -68.12 -77.76 -72 c
-107.44 -9.44 -169.71 97.11 -264.96 119.52 c
-76.81 31.58 -177.96 17.19 -251.99 -10.09 c
-13.08 -0.8 -24.6 1.72 -34.56 7.21 c
-27.83 52.1 2.4 108.61 7.2 161.27 c
36.96 172.32 96.35 335.38 182.87 486.72 c
9.95 15.32 25.07 29.71 43.21 31.67 c
40.17 1.65 70.05 -34.35 92.15 -64.8 c
f
K
4646.1 3260.02 m
17.85 -23.9 16.4 -56.3 28.8 -83.52 c
7.39 -14.54 -7.72 -24.26 -17.27 -30.24 c
-11.68 -4.09 -22.48 -13.46 -34.56 -10.08 c
-13.48 14.62 6.68 25.42 8.63 38.88 c
4.16 18.22 4.16 41.26 -5.75 56.16 c
-8.44 12.45 -21.04 20.73 -34.56 21.59 c
-14.2 -0.86 -27.51 -6.98 -34.56 -20.15 c
-12.04 -55.22 12.44 -134.05 -56.17 -156.96 c
-26.06 -11.28 -57.73 -4.09 -79.2 10.08 c
-42.6 32.27 -43.69 84.1 -59.03 128.16 c
3.47 23.62 31.91 25.05 48.96 35.99 c
5.26 3.1 13.9 1.66 17.28 -4.31 c
-0.5 -22.1 -26.41 -33.62 -23.04 -57.6 c
-1.94 -27.86 9.58 -54.13 34.56 -67.68 c
10.66 -5.17 25.42 -2.29 36 2.88 c
44.48 35.14 0.58 108.94 37.43 148.32 c
20.74 25.77 52.42 34.77 84.96 25.91 c
17.85 -6.26 35.84 -19.58 47.52 -37.43 c
f
255 G
4111.88 3202.42 m
29.41 -46.22 43.8 -99.49 61.91 -151.2 c
41.65 -142.66 77.65 -292.04 74.88 -450.71 c
-17.04 -47.59 -73.55 -48.31 -112.31 -66.24 c
-89.38 -11.94 -136.54 91.36 -180 148.32 c
-61.28 122.3 -189.79 166.21 -311.04 184.31 c
-53.69 6.74 -95.8 -23.49 -146.87 -12.96 c
-6.88 5.3 -13.36 8.9 -14.41 17.28 c
-2.91 22.22 7.88 38.42 18.72 54.72 c
62.96 103.56 169.51 207.59 300.96 180 c
58.24 -14.89 138.16 -25.68 184.32 24.48 c
41.66 25.07 66.85 117.21 123.84 72 c
f
K
602.66 3062.74 m
-0.09 -24.24 -14.49 -46.56 -17.28 -72 c
-25.92 -105.12 p
-15.92 -17.38 -26.36 13.21 -40.31 17.28 c
-62 18.25 -124.27 35.17 -188.64 46.08 c
-13.74 2.41 -28.86 -17.02 -38.88 0 c
2.82 25.81 10.74 49.57 17.28 73.44 c
16.5 18.96 25.49 -15.24 40.32 -18.72 c
167.04 -43.2 p
8.91 -3.35 18.27 0.61 25.91 4.32 c
15.4 26.52 24.75 60.72 14.4 92.16 c
-4.05 10.68 -16.64 19.32 -11.52 31.68 c
16.47 6.35 31.59 -9.49 47.52 -14.4 c
10.08 -11.52 p f
4739.71 2882.74 m
-1.98 -23.14 14.94 -46.18 1.43 -67.67 c
-23.92 6.74 -51.65 12.5 -76.32 5.75 c
-145.44 -24.48 p
-17.06 -0.45 -24.61 -26.73 -41.75 -20.16 c
-9.5 24.03 -12.39 50.31 -14.41 76.32 c
-0.86 5.66 5.27 7.82 10.09 8.64 c
11.38 -0.82 20.73 -8.74 33.12 -10.07 c
174.23 25.91 p
22.88 -6.58 49.87 54.98 59.05 5.76 c
f
536.43 2681.15 m
-0.81 -19.17 2.79 -40.76 -8.65 -56.16 c
-42.19 -34.28 -115.27 -21.68 -133.91 -84.96 c
-1.52 -11.95 2.09 -24.54 14.4 -28.8 c
33.04 -2.22 81.99 -16.62 106.55 14.4 c
6.4 2.81 12.16 -2.95 12.96 -8.64 c
-6.2 -27.42 7.84 -65.94 -12.96 -84.96 c
-11.96 1.03 -19.52 12.54 -30.24 15.84 c
-64.14 6.42 -127.86 12.19 -194.39 11.52 c
-15.9 2.11 -29.94 -25.97 -43.2 -5.76 c
4.62 69.05 -16.97 153.64 46.08 192.96 c
17.94 6.4 39.18 7.84 56.16 -1.44 c
17.21 -4.76 25.85 -34.28 47.52 -24.48 c
40.24 28.36 92.8 29.8 126.71 70.56 c
6.4 0.27 10.72 -4.41 12.97 -10.08 c
f
255 G
354.99 2573.15 m
4.25 -13.39 6.41 -31.75 1.44 -46.08 c
-14.11 -19.87 -41.46 -9.78 -61.92 -8.64 c
-9.78 2.46 -11.58 12.89 -14.4 20.16 c
0.66 16.49 2.82 32.33 12.96 44.64 c
6.42 8.21 16.14 8.21 24.48 11.52 c
15.41 0.64 30.53 -6.92 37.44 -21.6 c
f
K
4775.7 2557.31 m
-8.82 -63.06 -8.09 -130.38 -11.52 -195.83 c
-11.69 -18.05 -38.69 -13.01 -56.16 -10.08 c
-11.68 16.51 16.03 24.07 20.16 37.43 c
4.88 10.39 7.75 25.15 2.88 36.01 c
-10.61 17.21 -32.56 11.45 -48.96 14.4 c
-146.88 5.76 p
-17.78 3.53 -28.94 -24.53 -44.63 -7.21 c
-0.86 25.51 -0.86 53.95 5.76 77.76 c
14.25 11.82 25.05 -11.22 40.32 -12.96 c
177.11 -10.07 p
8.84 2.81 22.15 5.33 24.48 17.27 c
5.23 22.61 -8.45 40.25 -21.6 56.16 c
-0.89 5.69 -0.89 11.81 5.76 12.96 c
18.91 -2.59 47.35 3.17 53.28 -21.6 c
f
255 G
1037.53 2509.79 m
88.06 -92.21 162.56 -236.2 293.76 -262.08 c
61.02 -16.58 133.01 -12.26 191.51 7.21 c
12.05 -1.49 25.01 -1.11 34.56 -10.08 c
8.09 -10.49 8.09 -26.68 5.77 -40.33 c
-35.12 -59.06 -40.16 -143.65 -118.09 -172.79 c
-100.25 -58.32 -247.82 -2.89 -351.35 -53.29 c
-53.77 -13.32 -103.09 -46.79 -138.24 -96.46 c
-9.84 -6.48 -22.44 -10.8 -34.56 -7.21 c
-19.92 10.08 -25.32 30.61 -33.11 47.52 c
-65.28 177.09 -102.36 365.71 -103.68 568.79 c
1.32 14.69 5.65 27.65 12.96 38.88 c
46.68 34.13 117.95 13.97 175.67 17.28 c
25.43 -2.95 46.31 -16.99 64.8 -37.44 c
f
4144.99 2338.43 m
25.81 12.56 47.77 39.56 80.64 31.68 c
33 -26.32 8.52 -74.57 10.08 -110.87 c
-30.35 -194.42 -91.9 -376.2 -180 -547.19 c
-9.45 -17.27 -27.81 -37.05 -47.52 -40.31 c
-47.6 -0.71 -84.67 22.32 -125.27 35.99 c
-38.23 15.86 -60.92 55.45 -67.68 92.15 c
4.6 83.52 11.8 182.15 -17.28 257.75 c
-15.19 114.11 -97.62 240.43 -214.55 270.73 c
-8.69 6.79 -15.89 12.56 -20.17 21.6 c
-2.56 17.58 12.56 30.54 25.92 38.87 c
79.5 37.03 182.45 94.98 270.72 34.57 c
87.75 -44.34 175.94 -141.16 285.11 -84.97 c
f
K
547.94 2233.32 m
-0.08 -27.03 11.43 -53.3 7.2 -79.2 c
-15.92 -7.23 -29.96 15.1 -47.52 2.87 c
-16.63 -9.75 -37.87 -13.69 -47.51 -34.55 c
-1.88 -26.31 1 -55.1 14.4 -77.76 c
20.43 -12.61 49.59 -17.65 73.43 -10.07 c
7.48 5.02 12.88 20.48 23.04 14.39 c
12.16 -12.62 10.71 -33.85 11.53 -53.28 c
-5.14 -9 -17.37 -11.89 -27.37 -8.63 c
-213.11 41.75 p
-14.11 0.71 -21.66 -14.41 -36 -12.96 c
-14.1 20.86 -11.58 47.87 -15.84 72.01 c
2.1 15.1 18.66 20.13 28.8 27.34 c
188.63 103.69 p
11.8 8.6 29.44 48.19 40.32 14.4 c
f
4507.86 2146.91 m
59.97 -18.38 121.89 -33.85 185.76 -46.07 c
14.95 -3.62 30.07 18.34 41.76 0 c
-11.33 -57.62 -30.77 -111.6 -37.44 -171.35 c
-11.32 -20.88 -38.68 -7.93 -54.72 -5.76 c
-6.28 3.94 -7.71 10.78 -4.31 15.84 c
33.67 20.51 46.63 59.37 44.63 96.46 c
-16 19.44 -43.72 23.75 -66.24 18.73 c
-20.31 -21.25 -25 -60.13 -11.52 -87.83 c
-18.15 -17.66 -39.74 3.22 -59.03 4.32 c
-18.16 17.99 14.25 25.17 18.72 40.31 c
3.45 18.34 16.41 37.79 5.75 56.15 c
-25.34 14.4 -57.02 28.07 -84.95 15.84 c
-18.51 -26.64 -26.43 -60.84 -18.72 -95.04 c
0.58 -14.04 27.93 -27.71 10.08 -40.31 c
-22.1 3.24 -45.14 9.71 -57.6 27.36 c
18.22 61.55 31.18 125.26 47.52 187.19 c
13.17 20.14 26.13 -10.82 40.31 -15.84 c
f
255 G
426.99 2087.89 m
4.6 -9.03 1.72 -19.47 -1.44 -28.81 c
-15.2 -10.1 -38.24 -5.06 -53.28 1.44 c
-7.27 3.58 -6.55 12.21 -4.32 17.27 c
15.05 14.39 44.56 35.27 59.04 10.1 c
f
3541.64 1847.4 m
69.8 -95.02 80.95 -237.93 210.24 -286.54 c
41.69 -14.38 82.73 -32.02 132.48 -30.26 c
10 -1.38 21.16 -7.87 25.91 -18.71 c
2.08 -13.63 -2.59 -28.03 -8.63 -40.31 c
-123.18 -159.79 -286.25 -313.48 -452.16 -414.73 c
-14.42 -7.46 -34.94 -8.9 -50.39 -4.31 c
-41.79 28.16 -97.21 64.88 -106.56 116.64 c
1.79 95.09 10.78 186.89 63.36 260.64 c
52.17 73.48 100.4 177.13 47.52 264.94 c
-25.59 51.51 -87.5 78.85 -113.76 126.72 c
-3.61 9.73 -1.46 20.53 5.76 27.36 c
38.86 21.61 88.17 18.36 133.92 24.48 c
40.28 0 84.92 5.76 112.31 -25.92 c
f
K
650.18 1802.77 -1.44 -17.28 P
-28.89 -35.98 -68.49 -68.03 -82.07 -110.88 c
-1.53 -11.14 1.34 -20.49 8.63 -28.79 c
35.55 -25.9 71.55 6.85 100.8 25.92 c
7.82 7.57 6.38 20.52 18.72 23.02 c
8.64 -2.87 p
10.33 -24.1 28.69 -45.33 31.68 -73.44 c
-10.54 -11.85 -25.3 -0.33 -38.88 -4.31 c
-57.33 -22.31 -111.69 -52.17 -167.04 -79.2 c
-19.16 -6.45 -15.92 -34.16 -37.43 -33.13 c
-14.49 20.92 -23.84 43.25 -34.56 64.81 c
-3.68 28.83 28 7.95 43.19 15.84 c
15.4 7.95 35.92 9.74 44.64 27.34 c
3.52 14.08 -12.68 23.07 -21.6 27.37 c
-29.95 9.39 -64.15 51.15 -95.03 14.39 c
-22.76 0.39 -22.76 27.75 -31.68 41.76 c
-2.23 9.74 2.44 15.86 10.08 18.73 c
32.68 5.06 60.4 -11.51 87.83 -24.47 c
32.32 -2.88 28.36 34.57 44.64 50.39 c
22.6 35.64 65.07 63.36 74.88 103.67 c
3.51 3.61 8.55 6.48 12.96 2.89 c
10.71 -12.25 15.38 -27.36 23.04 -41.76 c
f
255 G
1409.05 1736.52 m
95.93 -28.77 210.03 -61.89 313.91 -25.92 c
34.34 12.27 57.02 66.25 99.36 47.52 c
10.94 -10.78 13.46 -27.34 10.08 -43.2 c
-18.58 -57.21 -81.57 -92.85 -126.72 -128.15 c
-110.35 -69.8 -283.85 -162.67 -251.99 -326.87 c
1.97 -23.69 10.61 -58.97 -12.96 -74.88 c
-17.1 -4.61 -31.86 3.67 -44.64 11.52 c
-163.24 138.3 -296.06 301 -388.8 473.75 c
-4.09 15.14 0.23 29.9 7.2 41.76 c
25.93 17.28 p
69.69 18.36 133.04 60.12 211.67 47.52 c
156.96 -40.33 p f
K
4372.51 1703.42 159.83 -79.2 P
13.18 -3.23 24.69 5.05 30.25 15.84 c
13.16 20.89 -9.15 42.5 2.88 61.91 c
18.2 -0.35 33.32 -12.95 46.07 -27.36 c
-2.88 -17.29 p
-30.75 -53.96 -57.03 -110.12 -82.08 -167.03 c
-14.18 -18.67 -33.98 -0.68 -48.95 1.45 c
-6.99 2.91 -10.94 10.84 -8.65 15.84 c
17.14 11.56 49.18 21.99 50.4 48.94 c
-0.86 18.05 -21.02 25.61 -33.11 31.68 c
-60.62 20.92 -109.93 71.68 -178.56 66.25 c
-9.13 6.13 -2.64 16.58 0 23.03 c
11.39 19.47 15.71 43.94 34.56 57.61 c
15.35 -3.94 14.62 -22.67 30.24 -31.67 c
f
255 G
3020.37 1506.13 m
12.97 -31.27 11.17 -69.06 11.52 -106.56 c
3.62 -87.05 -21.94 -190.35 43.21 -254.87 c
51.11 -60.03 113.03 -114.02 181.43 -144 c
7.9 -8.18 12.23 -20.43 8.64 -33.12 c
-6.14 -14.65 -21.97 -22.58 -34.55 -30.24 c
-217.08 -95.29 -450.68 -150 -707.04 -149.76 c
-32.33 1.21 -69.04 5.87 -80.64 38.88 c
-22.24 55.55 -29.8 138.69 14.4 185.76 c
108.78 140.12 277.6 175.39 380.16 318.23 c
51.14 86.81 -44.96 158.8 -20.16 246.25 c
5.79 16.95 23.43 30.25 40.32 33.1 c
68.41 1.12 125.65 -47.48 162.71 -103.67 c
f
2393.98 1445.66 m
11.61 -18.67 16.28 -44.24 10.09 -67.69 c
-38.08 -68.34 -103.24 -125.2 -136.8 -195.82 c
-44.9 -98.93 -37.7 -238.95 21.6 -329.77 c
-0.27 -10.33 6.57 -22.21 -1.44 -31.68 c
-10.71 -12.48 -27.27 -10.31 -41.76 -12.95 c
-226.68 35.02 -435.09 113.85 -627.83 228.95 c
-23.24 14.49 -38.71 38.61 -33.12 64.8 c
31.12 80 119.67 89.36 190.08 107.99 c
144.49 9.43 275.51 51.91 393.11 126.72 c
65.25 48.3 83.25 120.64 112.32 185.76 c
4.77 7.97 12.33 15.16 21.6 15.84 c
46.16 -5 67.4 -58.63 92.15 -92.15 c
f
255 217 0 rG
2676.22 4067.84 m
6.89 -81.94 -46.39 -146.37 -67.68 -220.31 c
-40.26 -107.84 4.38 -220.15 23.04 -324 c
-1.38 -10.25 -2.82 -20.69 -10.08 -28.8 c
-46.37 -25.72 -106.85 -4.13 -159.83 -12.96 c
-45.29 4.87 -104.68 -31.12 -135.36 14.4 c
-2.88 34.56 p
28.88 97.73 9.08 215.8 99.36 288 c
86.1 75.02 198.76 152.41 231.83 262.07 c
10.49 13.44 18.77 -4.91 21.6 -12.96 c
f
1875.6 4020.32 m
37.56 -83.37 3.37 -191.72 28.79 -280.8 c
33.97 -125.81 182.64 -174.05 246.24 -287.98 c
3.34 -13.49 0.46 -28.25 -8.64 -38.89 c
-40.93 -28.96 -86.28 -47.31 -128.16 -73.43 c
-45.59 -27.88 -88.07 -63.87 -132.47 -93.6 c
-15.35 -6.27 -32.62 -6.27 -47.52 0 c
-45.22 38.01 -58.54 94.52 -80.64 143.99 c
-16.41 92.72 -73.28 189.54 -28.8 285.12 c
37.58 89.08 49.1 188.43 67.68 285.11 c
4.52 32.3 4.52 58.56 12.96 84.96 c
9.14 8.41 23.9 8.41 36 5.76 c
13.45 -4.55 26.41 -17.51 34.56 -30.24 c
f
3309.81 3749.61 m
-9.38 -45.19 -60.13 -63.19 -87.84 -99.36 c
-73.43 -86.94 -92.16 -196.72 -128.15 -299.52 c
-6.49 -10.23 -16.2 -19.23 -27.36 -21.6 c
-29.16 -2.67 -49.31 14.97 -72.01 25.93 c
-47.86 32.95 -107.24 43.39 -148.31 84.95 c
-15.45 40.51 19.1 71.47 25.92 108 c
22.71 67.14 61.22 149.57 138.23 172.8 c
68.05 51.28 167.4 26.8 250.56 43.2 c
17.63 -0.2 40.3 3.4 48.96 -14.4 c
f
1321.21 3432.81 m
35.46 -51.63 42.38 -113.68 73.87 -167.52 c
30.42 -65.66 74.98 -111.61 145 -113.27 c
66.77 2.39 124.36 26.86 188.64 36 c
15.99 1.3 31.1 -0.5 43.2 -10.08 c
6.62 -9.14 10.94 -21.01 7.2 -33.12 c
-20.01 -41.17 -54.93 -76.09 -77.76 -116.64 c
-34.4 -50.16 -53.84 -106.66 -84.96 -158.4 c
-9.2 -12.7 -23.95 -18.82 -38.88 -20.15 c
-52.03 3.85 -92.7 34.81 -148.32 28.79 c
-46.25 -1.18 -93.4 7.1 -115.19 51.84 c
-68.92 116.16 9.1 262.61 -78.93 370.03 c
-17.8 42.32 -68.82 95.28 -37.71 146.92 c
35.12 23.95 94.51 19.99 123.84 -14.4 c
f
3321.33 2914.42 m
146.84 -286.99 110.13 -696.61 -96.48 -944.62 c
-227.14 -288.69 -577.74 -398.85 -931.66 -316.8 c
-291.83 63.74 -575.12 345.24 -639.35 636.47 c
-95.59 383.68 49.47 763.43 380.15 982.07 c
260.37 182.35 682.59 185.59 948.95 12.95 c
138.59 -84.37 271.42 -226.19 338.39 -370.07 c
f
3838.28 3226.9 m
8.57 -6.26 19.01 -15.98 15.84 -27.36 c
-35.71 -30.74 -83.94 -1.22 -128.16 -8.64 c
-130.36 -5.9 -246.63 -90.85 -312.47 -205.92 c
-9.75 -10.19 -27.03 -10.19 -38.88 -5.76 c
-15.84 12.96 p
-37.82 58.56 -76.34 116.51 -120.96 171.36 c
-10.09 14.62 -8.65 36.94 -4.31 53.28 c
60.09 116.84 185 137.72 302.39 148.31 c
126.3 16.77 197.57 -100.22 302.39 -138.23 c
f
3841.16 2705.63 m
44.56 -79.64 98.91 -169.63 185.75 -218.88 c
17.19 -9.78 39.14 -17.69 48.97 -38.88 c
4.22 -15.18 -6.58 -28.13 -18.72 -33.13 c
-69.21 -15.88 -116.73 45.32 -174.24 67.7 c
-77.83 33.41 -180.06 62.2 -263.52 23.03 c
-40.01 -9.42 -72.04 -51.9 -116.64 -36 c
-12.63 8.57 -17.31 22.27 -18.72 36 c
-1.47 67.97 -7.95 133.48 -17.27 197.28 c
2.12 13.59 5 26.91 14.39 37.44 c
53.24 30.86 120.56 29.42 182.88 40.31 c
71.21 5.31 134.92 -14.13 177.12 -74.87 c
f
1172.89 2630.75 m
67.16 -60.91 140.95 -123.9 236.16 -100.8 c
42.29 7.13 80.81 33.77 125.28 27.36 c
36.16 -38.23 13.84 -103.37 24.47 -154.07 c
-1.99 -18.77 -10.63 -37.5 -28.8 -47.52 c
-72.18 -24.88 -165.77 -63.05 -240.47 -17.29 c
-104.19 102.19 -197.78 249.77 -338.39 286.56 c
-23.17 7.48 -52.69 1.72 -69.12 21.6 c
11.75 36.27 53.15 43.47 86.39 48.96 c
77.63 1.71 141.34 -30.68 204.48 -64.8 c
f
3622.29 2217.48 m
91.37 -93.99 62.57 -237.97 74.87 -365.76 c
-4.32 -12.95 -8.64 1.44 p
-73.85 80.63 -162.03 125.98 -266.4 131.04 c
-28.1 1.42 -62.65 -0.02 -71.99 28.79 c
1.44 25.91 p
36.33 65.51 65.48 133.89 92.15 203.05 c
7.89 15.08 21.93 27.68 38.88 30.24 c
52.88 -0.77 102.91 -10.12 144.01 -41.76 c
f
1676.88 2046.11 m
22.11 -57.6 112.46 -106.91 61.92 -175.66 c
-44.49 -37.45 -80.12 -95.75 -138.24 -99.36 c
-138.42 -11.87 -233.81 88.2 -368.63 87.83 c
-53.43 5.76 -99.15 -7.91 -146.88 -15.84 c
-9.86 -1.79 -17.42 4.32 -21.6 11.53 c
3.1 43.92 51.34 58.67 84.96 69.12 c
140.59 17.99 297.53 -2.89 411.83 79.2 c
36.52 20.13 70.72 84.94 116.64 43.18 c
f
3315.57 1697.65 m
18.7 -68 -7.94 -135.68 -27.36 -197.28 c
-36.74 -103.26 -100.08 -206.21 -66.24 -328.32 c
8.63 -22.23 22.31 -44.55 17.28 -71.99 c
-7.93 -12.52 -25.57 -12.15 -38.88 -10.08 c
-44.28 19.53 -72.36 64.88 -77.75 109.43 c
-12.54 210.88 p
-2.52 79.96 -6.91 139.43 -69.54 190.88 c
-16.56 15.51 -40.32 28.48 -44.64 50.39 c
-2.51 14.43 2.89 25.23 11.51 34.57 c
54.02 38.54 108.36 77.05 161.28 119.51 c
13.67 7.21 33.83 11.17 48.96 2.89 c
40.31 -23.03 84.58 -65.15 97.92 -110.88 c
f
3753.32 1748.04 m
22.61 -37.77 69.77 -63.34 89.28 -102.22 c
1.73 -12.58 -2.24 -25.55 -14.4 -30.26 c
-28.15 -11.48 -55.87 2.19 -77.76 15.84 c
-47.58 38.91 -60.54 103.34 -44.64 159.85 c
20.1 -5.75 31.26 -28.42 47.52 -43.21 c
f
2003.75 1706.29 m
46.56 -31.29 97.67 -52.17 145.44 -82.07 c
42.58 -50.02 -8.54 -104.73 -24.48 -152.64 c
-55.69 -123.79 -187.79 -147.19 -298.07 -181.45 c
-91.65 -0.66 -164.36 -46.73 -237.6 -92.14 c
-10.99 -3.54 -27.91 -4.99 -37.44 1.42 c
-22.15 20.24 -18.55 54.06 -14.4 80.65 c
29.69 106.6 147.39 134.68 221.76 200.15 c
63.5 50.08 157.8 112.72 149.76 204.47 c
1.92 19.46 4.09 43.58 25.91 48.97 c
28.57 4.69 46.57 -16.19 69.12 -27.36 c
f
2715.1 1552.2 m
26.68 -34.88 36.04 -77.71 41.76 -122.38 c
-2.12 -62.23 -71.23 -94.63 -112.32 -132.48 c
-102.89 -75.53 -220.6 -176.68 -260.63 -296.64 c
-8.56 -10.35 -20.08 -23.67 -34.56 -18.71 c
-27.27 25.29 -10.72 70.27 -2.88 99.35 c
32.12 83.6 119.58 144.07 161.27 223.19 c
25.99 81.05 -44.56 139.72 -87.83 200.15 c
-4.97 11.22 -10.01 27.06 -1.44 37.45 c
11.95 15.52 31.39 12.28 48.96 14.39 c
77.09 -7.87 149.45 9.4 224.63 7.21 c
23.04 -11.53 p f
2715.1 1552.2 -23.04 11.53 P
-37.59 1.09 -74.47 -2.68 -111.6 -5.73 c
-37.12 -3.06 -74.48 -5.41 -113.03 -1.48 c
-8.79 -1.05 -18.04 -0.78 -26.59 -2.17 c
-8.55 -1.38 -16.4 -4.47 -22.37 -12.22 c
-8.57 -10.39 -3.53 -26.23 1.44 -37.45 c
10.81 -15.09 23.34 -30.09 35.63 -45.37 c
12.29 -15.25 24.36 -30.78 34.25 -46.97 c
19.8 -32.34 30.94 -67.28 17.95 -107.81 c
-10.42 -19.79 -23.7 -38.4 -38.27 -56.51 c
-14.56 -18.08 -30.41 -35.68 -45.95 -53.41 c
-31.09 -35.45 -60.99 -71.47 -77.05 -113.27 c
-1.96 -7.26 -4.46 -15.52 -6.69 -24.23 c
-2.23 -8.69 -4.18 -17.84 -5.04 -26.86 c
-1.71 -18.05 0.97 -35.62 14.61 -48.26 c
14.48 -4.96 26 8.36 34.56 18.71 c
40.03 119.96 157.74 221.11 260.63 296.64 c
20.55 18.93 48.1 36.49 70.77 57.09 c
22.68 20.61 40.49 44.28 41.55 75.39 c
-5.72 44.67 -15.08 87.5 -41.76 122.38 c
h
2766.78 1431.09 m
-1.13 -36.78 -21.34 -62.79 -44.74 -84.06 c
-22.66 -20.59 -50.62 -38.5 -71.15 -57.4 c
-103 -75.61 -218.58 -175.47 -257.5 -292.09 c
-1.78 -3.21 p
-4.17 -5.06 -10 -12.03 -17.05 -16.93 c
-7.35 -5.12 -17.18 -8.73 -28.44 -4.88 c
-3.57 2.13 p
-16.96 15.74 -19.6 37.16 -17.76 56.54 c
0.9 9.53 2.94 19.2 5.3 28.4 c
2.24 8.75 4.91 17.54 6.88 24.84 c
16.78 43.67 48.01 81.41 79.03 116.78 c
15.46 17.62 31.21 35.1 45.68 53.08 c
14.15 17.6 26.86 35.41 36.81 54.13 c
11.35 36.36 1.59 67.96 -17.23 98.71 c
-9.67 15.82 -21.49 30.99 -33.51 45.91 c
-12.41 15.41 -25.05 30.57 -35.97 45.82 c
-1.01 1.78 p
-2.63 5.92 -5.59 13.73 -6.59 21.86 c
-0.99 8.16 -0.1 17.89 6.57 25.99 c
8.05 10.32 18.57 14.1 28.48 15.73 c
8.69 1.42 18.07 1.17 27 2.24 c
2.21 0.02 p
37.93 -3.89 74.69 -1.52 111.2 1.49 c
37.49 3.08 74.74 6.87 112.71 5.76 c
0.25 -0.02 3.97 -0.94 4.18 -1.06 c
23.04 -11.52 p
0.24 -0.12 3.31 -2.66 3.48 -2.87 c
28.38 -37.09 37.97 -82.21 43.73 -127.19 c
f
2003.75 1706.29 m
-11.27 5.58 -21.41 13.61 -32.3 19.63 c
-10.89 6.03 -22.53 10.07 -36.82 7.73 c
-10.91 -2.7 -16.91 -10.08 -20.42 -19.2 c
-1.75 -4.57 -2.88 -9.57 -3.7 -14.67 c
-0.81 -5.08 -1.31 -10.23 -1.79 -15.1 c
4.02 -45.87 -17.54 -84.47 -48.05 -117.87 c
-15.25 -16.7 -32.75 -32.09 -50.39 -46.42 c
-17.65 -14.36 -35.45 -27.66 -51.32 -40.18 c
-18.59 -16.37 -39.89 -30.39 -61.85 -43.9 c
-21.95 -13.5 -44.57 -26.49 -65.78 -40.75 c
-42.43 -28.53 -79.28 -62.2 -94.13 -115.5 c
-4.15 -26.59 -7.75 -60.41 14.4 -80.65 c
9.53 -6.41 26.45 -4.96 37.44 -1.42 c
36.62 22.71 73.1 45.58 111.89 62.85 c
38.79 17.28 79.88 28.96 125.71 29.29 c
27.57 8.58 56.5 16.45 85.27 25.39 c
28.76 8.95 57.35 18.97 84.24 31.76 c
53.77 25.61 100.72 62.4 128.56 124.3 c
7.98 23.94 24.74 49.61 34.19 75.53 c
9.45 25.91 11.58 52.09 -9.71 77.11 c
-47.77 29.9 -98.88 50.78 -145.44 82.07 c
h
2154.5 1632.69 2.31 -1.99 P
24.57 -28.87 21.56 -59.37 11.49 -87.01 c
-9.42 -25.84 -26.34 -51.88 -34.28 -75.74 c
-29.11 -64.71 -78.39 -103.42 -133.57 -129.69 c
-27.32 -13.01 -56.35 -23.18 -85.57 -32.29 c
-28.77 -8.94 -57.7 -16.81 -85.28 -25.39 c
-2.89 -0.45 p
-44.09 -0.31 -83.81 -11.54 -121.71 -28.41 c
-38.37 -17.11 -74.46 -39.77 -110.68 -62.25 c
-2.23 -1.02 p
-11.63 -3.73 -32.53 -6.44 -46.06 2.66 c
-27.88 25.31 -22.68 65.04 -18.71 90.49 c
16.05 57.87 55.28 93.26 98.43 122.26 c
21.33 14.34 44.05 27.39 66.13 40.96 c
21.84 13.44 42.75 27.29 60.68 43.07 c
15.84 12.5 33.81 25.94 51.41 40.25 c
17.47 14.2 34.54 29.24 49.32 45.41 c
29.62 32.42 49.14 68.36 45.46 110.26 c
0.01 1.87 p
0.51 5.06 1.03 10.41 1.87 15.68 c
0.88 5.45 2.15 11.22 4.25 16.66 c
4.31 11.22 12.76 21.72 27.75 25.41 c
17.34 2.86 31.71 -2.14 43.66 -8.76 c
10.76 -5.96 20.76 -13.89 31.9 -19.42 c
47.61 -31.89 98.63 -52.71 146.31 -82.56 c
f
3753.32 1748.04 m
-4.06 3.7 -7.81 7.89 -11.45 12.17 c
-3.66 4.3 -7.2 8.69 -10.87 12.81 c
-7.34 8.25 -15.15 15.36 -25.2 18.23 c
-15.9 -56.51 -2.94 -120.94 44.64 -159.85 c
21.89 -13.65 49.61 -27.32 77.76 -15.84 c
12.16 4.71 16.13 17.68 14.4 30.26 c
-9.76 19.43 -26.43 35.54 -43.48 51.52 c
-8.52 7.99 -17.15 15.94 -25.06 24.26 c
-7.9 8.32 -15.09 17.01 -20.74 26.44 c
h
3781.32 1728.49 m
7.76 -8.18 16.25 -15.99 24.64 -23.84 c
16.87 -15.81 34.9 -33.07 45.57 -54.36 c
0.98 -3.12 p
2.02 -14.79 -2.32 -33.81 -20.7 -40.92 c
-33.18 -13.46 -64.89 3.1 -86.66 16.68 c
-52.34 42.67 -65.71 111.56 -48.98 171.03 c
1.46 5.14 7.24 8.38 12.38 6.9 c
12.91 -3.69 22.32 -12.66 29.92 -21.18 c
3.72 -4.18 7.31 -8.63 11.01 -12.98 c
3.57 -4.2 6.98 -7.99 10.57 -11.25 c
1.85 -2.27 p
5.14 -8.57 11.79 -16.66 19.42 -24.69 c
f
3315.57 1697.65 m
-13.34 45.73 -57.61 87.85 -97.92 110.88 c
-15.13 8.28 -35.29 4.32 -48.96 -2.89 c
-52.92 -42.46 -107.26 -80.97 -161.28 -119.51 c
-8.62 -9.34 -14.02 -20.14 -11.51 -34.57 c
2.17 -10.96 9.19 -19.69 17.73 -27.6 c
8.56 -7.93 18.64 -15.04 26.91 -22.79 c
62.63 -51.45 67.02 -110.92 69.54 -190.88 c
12.54 -210.88 p
5.39 -44.55 33.47 -89.9 77.75 -109.43 c
13.31 -2.07 30.95 -2.44 38.88 10.08 c
2.52 13.73 0.35 26.17 -3.52 37.94 c
-3.86 11.8 -9.44 22.93 -13.76 34.05 c
-16.92 61.05 -9.55 117.32 6.65 171.23 c
16.2 53.9 41.22 105.47 59.59 157.09 c
9.71 30.8 21.22 63.12 27.97 96.23 c
6.75 33.12 8.74 67.05 -0.61 101.05 c
h
3325.99 1594.61 m
-6.83 -33.46 -18.49 -66.29 -28.3 -97.43 c
-18.31 -51.46 -43.33 -103.02 -59.49 -156.77 c
-15.84 -52.7 -22.8 -106.78 -6.73 -165.2 c
4.35 -11.13 9.89 -22.28 13.76 -34.08 c
4.18 -12.75 6.77 -26.97 3.85 -42.87 c
-1.38 -3.56 p
-5.99 -9.45 -15.42 -13.51 -24.17 -15.02 c
-8.64 -1.48 -17.63 -0.68 -24.7 0.41 c
-2.49 0.75 p
-48.03 21.17 -77.93 70.21 -83.68 117.67 c
-12.57 211.33 p
-2.52 80.02 -7.29 135.49 -66.14 183.81 c
-8.27 7.75 -18.58 15.06 -27.11 22.97 c
-9.07 8.4 -17.99 19.02 -20.78 33.12 c
-3.2 18.44 4.03 32.37 14.01 43.17 c
55.39 39.78 109.6 78.18 162.36 120.52 c
16.67 9.01 40.76 14.42 60.11 3.81 c
41.43 -23.67 88.29 -67.63 102.66 -116.87 c
9.9 -36.04 7.72 -71.74 0.79 -105.76 c
f
1676.88 2046.11 m
-22.96 20.88 -42.99 15.12 -61.84 1.62 c
-4.71 -3.38 -9.36 -7.24 -13.95 -11.29 c
-4.6 -4.04 -9.14 -8.28 -13.67 -12.4 c
-9.06 -8.26 -18.04 -16.07 -27.18 -21.11 c
-57.14 -41.06 -124.96 -56.35 -196.05 -63.64 c
-71.1 -7.3 -145.48 -6.58 -215.78 -15.56 c
-8.41 -2.62 -17.73 -5.49 -27.02 -9.05 c
-9.3 -3.53 -18.58 -7.73 -26.91 -12.96 c
-16.64 -10.49 -29.48 -25.16 -31.03 -47.11 c
4.18 -7.21 11.74 -13.32 21.6 -11.53 c
23.87 3.97 47.23 9.36 71.3 13.05 c
24.07 3.69 48.86 5.68 75.58 2.79 c
33.7 0.1 64.95 -6.09 95.01 -15.23 c
30.07 -9.14 58.96 -21.25 87.96 -32.99 c
58 -23.5 116.45 -45.55 185.66 -39.61 c
29.06 1.8 52.5 17.29 74.23 36.99 c
10.87 9.85 21.31 20.76 31.82 31.55 c
10.5 10.8 21.07 21.46 32.19 30.82 c
25.27 34.37 15.32 63.88 -3.72 92.01 c
-9.51 14.06 -21.3 27.77 -32.09 41.58 c
-10.79 13.79 -20.58 27.68 -26.11 42.07 c
h
1710.87 2010.19 m
10.93 -13.98 22.86 -27.87 32.5 -42.13 c
20.09 -29.68 32.41 -64.2 3.49 -103.53 c
-1.62 -1.74 p
-10.87 -9.14 -21.2 -19.59 -31.47 -30.14 c
-10.65 -10.93 -21.24 -21.99 -32.26 -31.97 c
-22.31 -20.23 -47.86 -37.56 -80.33 -39.57 c
-71.74 -6.09 -132.13 16.86 -190.04 40.31 c
-28.72 11.64 -57.33 23.64 -87.11 32.7 c
-29.41 8.94 -59.64 14.9 -92.07 14.8 c
-26.66 2.82 -50.5 0.94 -74.09 -2.67 c
-24.03 -3.67 -47.28 -9.07 -71.1 -13.01 c
-15.66 -2.85 -26.65 7.21 -31.97 16.35 c
-0.26 0.45 -1.36 5.19 -1.32 5.72 c
1.85 26.21 17.39 43.36 35.68 54.86 c
9.08 5.73 19.02 10.2 28.67 13.87 c
9.5 3.61 19.03 6.56 27.61 9.24 c
1.7 0.37 p
70.38 9 144.85 8.28 216.03 15.59 c
70.48 7.22 136.21 22.28 191.24 61.81 c
8.96 5.02 17.14 12.05 26.27 20.37 c
4.57 4.18 9.16 8.44 13.8 12.54 c
4.85 4.26 9.76 8.34 14.74 11.9 c
21.07 15.07 46.65 22.87 74.39 -2.35 c
0.21 -0.17 2.5 -3.53 2.61 -3.81 c
4.95 -12.91 13.93 -25.8 24.65 -39.51 c
f
3622.29 2217.48 m
-41.1 31.64 -91.13 40.99 -144.01 41.76 c
-16.95 -2.56 -30.99 -15.16 -38.88 -30.24 c
-26.67 -69.16 -55.82 -137.54 -92.15 -203.05 c
-1.44 -25.91 p
4.67 -14.4 15.64 -21.25 28.96 -24.67 c
6.66 -1.7 13.9 -2.56 21.25 -3.07 c
7.33 -0.53 14.76 -0.7 21.78 -1.05 c
104.37 -5.06 192.55 -50.41 266.4 -131.04 c
8.64 -1.44 4.32 12.95 p
-6.14 63.9 -2.02 131.83 -7.78 195.56 c
-5.77 63.71 -21.41 123.21 -67.09 170.2 c
h
3699.34 2048.18 m
5.76 -63.69 1.63 -131.62 7.78 -195.51 c
-0.47 -4.1 -4.33 -12.97 p
-1.32 -4 -6.96 -7.4 -11.12 -6.7 c
-8.64 1.45 p
-0.68 0.1 -5.27 2.6 -5.73 3.1 c
-72.3 78.93 -158.12 122.89 -259.52 127.8 c
-7.09 0.37 -14.6 0.54 -22 1.07 c
-7.96 0.57 -15.81 1.52 -23.02 3.36 c
-15.28 3.93 -29.9 12.46 -35.99 31.27 c
-0.48 3.65 1.45 25.92 p
0.01 0.25 1.11 4.06 1.24 4.3 c
36.1 65.08 65.06 133.06 91.57 201.77 c
9.38 18.09 25.76 33.36 46.72 36.53 c
55.45 -0.67 108.02 -10.18 151.59 -43.71 c
49.09 -50.35 65.11 -112.58 70.95 -177.23 c
f
1172.89 2630.75 m
-63.14 34.12 -126.85 66.51 -204.48 64.8 c
-33.24 -5.49 -74.64 -12.69 -86.39 -48.96 c
8.21 -9.94 19.7 -13.47 32.03 -15.45 c
6.17 -0.99 12.54 -1.59 18.83 -2.42 c
6.28 -0.82 12.46 -1.86 18.26 -3.73 c
70.3 -18.4 128.86 -64.49 182.85 -118.76 c
54 -54.26 103.44 -116.7 155.54 -167.8 c
37.35 -22.87 79.43 -24.78 121.18 -17.85 c
20.88 3.46 41.68 9.14 61.78 15.49 c
20.09 6.37 39.47 13.42 57.51 19.65 c
18.17 10.02 26.81 28.75 28.8 47.52 c
-2.65 12.68 -3.25 26.25 -3.22 40.08 c
0.03 13.85 0.69 27.93 0.56 41.64 c
-0.27 27.39 -3.73 53.24 -21.81 72.35 c
-22.24 3.2 -42.98 -1.85 -63.46 -8.6 c
-10.24 -3.38 -20.41 -7.17 -30.66 -10.57 c
-10.25 -3.41 -20.59 -6.4 -31.16 -8.19 c
-95.21 -23.1 -169 39.89 -236.16 100.8 c
h
1407.04 2539.74 m
10.07 1.7 20.26 4.65 30.03 7.89 c
10.25 3.4 20.43 7.2 30.67 10.58 c
20.84 6.87 43.41 12.54 68.01 9 c
0.69 -0.1 5.36 -2.52 5.84 -3.03 c
20.89 -22.08 24.27 -51.4 24.55 -79.12 c
0.13 -13.75 -0.53 -27.89 -0.56 -41.76 c
-0.03 -13.62 0.57 -26.37 3.01 -38.01 c
0.16 -3.11 p
-2.22 -20.87 -12.01 -43.12 -33.91 -55.23 c
-19.7 -6.93 -39.16 -14.02 -59.34 -20.41 c
-20.54 -6.5 -41.8 -12.29 -63.15 -15.82 c
-43.02 -7.15 -87.85 -5.43 -128.04 19.18 c
-1.78 1.39 p
-52.13 51.13 -101.6 113.59 -155.63 167.89 c
-53.6 53.86 -110.87 98.5 -178.56 116.21 c
-5.23 1.69 -11.09 2.68 -16.76 3.42 c
-6.38 0.84 -12.85 1.45 -19.11 2.46 c
-12.99 2.08 -27.55 6.12 -38.16 18.95 c
-1.2 1.45 -2.39 7.66 -1.8 9.45 c
7.03 21.71 22.99 34.35 40.63 42.1 c
17.31 7.61 37.23 10.94 53.65 13.64 c
81.96 1.92 147.81 -31.8 210.86 -65.86 c
1.96 -1.39 p
67.91 -61.6 138.11 -120.1 227.43 -98.42 c
f
3841.16 2705.63 m
-42.2 60.74 -105.91 80.18 -177.12 74.87 c
-31.16 -5.44 -63.57 -7.8 -94.84 -12.67 c
-31.28 -4.85 -61.42 -12.21 -88.04 -27.64 c
-9.39 -10.53 -12.27 -23.85 -14.39 -37.44 c
9.32 -63.8 15.8 -129.31 17.27 -197.28 c
1.41 -13.73 6.09 -27.43 18.72 -36 c
22.3 -7.95 41.46 -1.31 60.04 8.52 c
9.3 4.9 18.45 10.58 27.78 15.64 c
9.32 5.06 18.82 9.49 28.82 11.84 c
83.46 39.17 185.69 10.38 263.52 -23.03 c
14.37 -5.61 28.13 -13.61 41.76 -22.27 c
13.62 -8.63 27.11 -17.87 40.97 -25.93 c
27.72 -16.12 56.9 -27.43 91.51 -19.5 c
12.14 5 22.94 17.95 18.72 33.13 c
-4.91 10.58 -12.86 17.87 -21.72 23.71 c
-8.87 5.86 -18.65 10.27 -27.25 15.17 c
-86.84 49.25 -141.19 139.24 -185.75 218.88 c
h
4031.86 2495.45 m
8.77 -5 18.76 -9.55 27.81 -15.51 c
9.74 -6.45 19.3 -14.98 25.28 -27.85 c
6.65 -23.44 -9.18 -40.51 -23.99 -46.59 c
-39.86 -9.29 -71.81 3.52 -100.33 20.1 c
-13.97 8.11 -27.58 17.42 -41.31 26.14 c
-13.49 8.55 -26.74 16.21 -40.19 21.44 c
-77.67 33.35 -176.32 60.39 -255.48 23.24 c
-1.95 -0.68 p
-8.72 -2.05 -17.32 -6 -26.36 -10.9 c
-9.36 -5.08 -18.54 -10.78 -27.87 -15.7 c
-19.34 -10.22 -41.74 -18.48 -68.07 -9.08 c
-2.25 1.13 p
-16.15 10.98 -21.53 28.55 -23.08 43.67 c
-1.46 67.54 -7.94 133.04 -17.19 196.44 c
0 2.99 p
2.13 13.64 5.3 29.64 16.82 42.55 c
2.45 2 p
28.22 16.36 59.8 23.95 91.51 28.88 c
31.21 4.85 64.05 7.26 95.15 12.7 c
73.59 5.48 142.02 -15 186.82 -79.5 c
44.67 -79.83 98.11 -167.77 182.23 -215.47 c
f
3838.28 3226.9 m
-26.21 9.5 -50.31 23.94 -73.71 39.99 c
-23.4 16.05 -46.08 33.72 -69.43 49.66 c
-46.71 31.91 -96.11 56.97 -159.25 48.58 c
-117.39 -10.59 -242.3 -31.47 -302.39 -148.31 c
-4.34 -16.34 -5.78 -38.66 4.31 -53.28 c
44.62 -54.85 83.14 -112.8 120.96 -171.36 c
15.84 -12.96 p
11.85 -4.43 29.13 -4.43 38.88 5.76 c
65.84 115.07 182.11 200.02 312.47 205.92 c
11.05 1.85 22.36 1.4 33.66 0.16 c
11.29 -1.25 22.59 -3.28 33.6 -4.58 c
22.05 -2.62 43.04 -2.31 60.9 13.06 c
3.17 11.38 -7.27 21.1 -15.84 27.36 c
h
3858.76 3220.92 m
4.31 -6.08 7.67 -14.46 4.99 -24.06 c
-0.14 -0.49 -2.72 -4.57 -3.11 -4.9 c
-21.24 -18.28 -45.99 -18.09 -68.59 -15.42 c
-11 1.3 -22.26 3.34 -33.52 4.58 c
-10.91 1.2 -21.18 1.55 -30.91 -0.08 c
-127.45 -5.84 -240.93 -88.27 -305.45 -201.02 c
-1.46 -1.95 p
-13.74 -14.37 -36.01 -13.3 -49.61 -8.21 c
-2.83 1.62 -15.84 12.96 -2.06 2.31 p
-37.63 58.26 -76.16 116.23 -120.56 170.79 c
-12.7 18.41 -10.48 44.85 -5.98 61.84 c
0.77 2.01 p
62.86 122.22 193.48 143.15 310.39 153.7 c
66.69 8.73 118.55 -18.01 165.79 -50.27 c
23.36 -15.96 46.05 -33.63 69.44 -49.68 c
23.12 -15.86 46.42 -29.76 71.47 -38.84 c
2.49 -1.33 p
4.56 -3.34 10.35 -8.09 14.58 -14.05 c
f
3321.33 2914.42 m
-66.97 143.88 -199.8 285.7 -338.39 370.07 c
-266.36 172.64 -688.58 169.4 -948.95 -12.95 c
-330.68 -218.64 -475.74 -598.39 -380.15 -982.07 c
64.23 -291.23 347.52 -572.73 639.35 -636.47 c
353.92 -82.05 704.52 28.11 931.66 316.8 c
206.61 248.01 243.32 657.63 96.48 944.62 c
h
3232.53 1963.4 m
-229.7 -291.78 -584.18 -402.99 -941.54 -320.14 c
-295.62 64.55 -581.84 348.98 -646.91 644.06 c
-96.48 387.65 50.21 771.6 384.4 992.56 c
263.8 184.6 690.28 187.75 959.9 13.01 c
140.03 -85.32 274.17 -228.48 342.01 -374.25 c
148.38 -290.36 111.36 -704.09 -97.86 -955.24 c
f
1321.21 3432.81 m
-29.33 34.39 -88.72 38.35 -123.84 14.4 c
-15.55 -25.82 -10.58 -51.97 0.51 -76.95 c
11.09 -24.99 28.3 -48.81 37.2 -69.97 c
44.01 -53.72 46.52 -117.18 46.63 -181.74 c
0.06 -32.28 -0.48 -64.83 3.27 -96.58 c
3.75 -31.74 11.8 -62.67 29.03 -91.71 c
21.79 -44.74 68.94 -53.02 115.19 -51.84 c
27.81 3.01 51.88 -3.22 75.51 -10.69 c
11.81 -3.74 23.51 -7.78 35.51 -11.13 c
12 -3.36 24.3 -6.01 37.3 -6.97 c
14.93 1.33 29.68 7.45 38.88 20.15 c
15.56 25.87 28.2 52.93 41.25 79.79 c
13.05 26.87 26.51 53.53 43.71 78.61 c
11.41 20.28 25.85 39.15 39.93 58.09 c
14.09 18.94 27.82 37.97 37.83 58.55 c
3.74 12.11 -0.58 23.98 -7.2 33.12 c
-12.1 9.58 -27.21 11.38 -43.2 10.08 c
-32.14 -4.57 -62.61 -12.97 -93.39 -20.53 c
-30.78 -7.56 -61.87 -14.28 -95.25 -15.47 c
-70.02 1.66 -114.58 47.61 -145 113.27 c
-7.87 13.46 -14.21 27.43 -19.84 41.63 c
-5.63 14.2 -10.56 28.61 -15.61 42.96 c
-10.09 28.7 -20.69 57.11 -38.42 82.93 c
h
1369.07 3353.2 m
5 -14.23 9.88 -28.52 15.47 -42.59 c
5.44 -13.73 11.78 -27.68 19.39 -40.7 c
29.63 -63.94 71.72 -106.23 136.09 -107.89 c
32.19 1.19 62.36 7.67 92.92 15.18 c
31.1 7.64 62.19 16.14 94.67 20.75 c
17.02 1.39 35.52 -0.29 50.52 -12.18 c
1.88 -1.96 p
7.65 -10.55 13.68 -25.7 8.66 -41.94 c
-11.02 -22.95 -25.29 -42.65 -39.35 -61.57 c
-13.83 -18.6 -28.27 -37.49 -39.48 -57.4 c
-16.74 -24.41 -30.16 -50.86 -43.19 -77.7 c
-13.18 -27.13 -26.2 -54.8 -41.91 -80.93 c
-11.39 -15.72 -29.47 -23.1 -46.32 -24.6 c
-15.32 1 -28.26 3.77 -40.89 7.29 c
-12.11 3.39 -23.92 7.46 -35.84 11.23 c
-23.35 7.38 -46.17 13.04 -71.82 10.26 c
-46.71 -1.19 -100.22 6.86 -124.85 57.44 c
-17.87 30.39 -26.14 62.51 -29.97 94.91 c
-3.8 32.13 -3.28 65.07 -3.34 97.73 c
-0.11 64.75 -2.85 124.76 -44.37 175.42 c
-1.48 2.46 p
-8.88 21.11 -26.06 44.87 -37.11 69.79 c
-11.64 26.21 -17.98 56.24 0.05 86.18 c
0.13 0.2 2.74 2.96 2.94 3.1 c
38.84 26.48 104.38 22.13 137.4 -16.59 c
18.56 -27.03 29.83 -57.02 39.93 -85.69 c
f
3309.81 3749.61 m
-4.33 8.9 -12.16 12.45 -21.12 13.8 c
-4.47 0.67 -9.24 0.8 -13.97 0.77 c
-4.74 -0.04 -9.47 -0.22 -13.87 -0.17 c
-20.79 -4.1 -42.59 -5.65 -64.67 -6.46 c
-22.07 -0.81 -44.41 -0.89 -66.28 -2.06 c
-43.74 -2.34 -85.58 -9.04 -119.61 -34.68 c
-77.01 -23.23 -115.52 -105.66 -138.23 -172.8 c
-1.71 -9.13 -5.15 -17.92 -9.1 -26.59 c
-3.96 -8.67 -8.43 -17.23 -12.21 -25.92 c
-7.56 -17.36 -12.33 -35.23 -4.61 -55.49 c
20.53 -20.77 45.65 -33.78 71.6 -45.7 c
12.99 -5.96 26.19 -11.66 39.13 -17.92 c
12.93 -6.26 25.62 -13.1 37.58 -21.33 c
11.35 -5.48 22.06 -12.63 33.59 -18.08 c
11.51 -5.44 23.84 -9.18 38.42 -7.85 c
11.16 2.37 20.87 11.37 27.36 21.6 c
18 51.4 31.67 104.55 50.03 155.71 c
18.36 51.16 41.4 100.34 78.12 143.81 c
6.93 9.04 15.3 16.95 24.09 24.43 c
8.8 7.48 18.04 14.53 26.7 21.86 c
17.33 14.67 32.36 30.47 37.05 53.07 c
h
3279.23 3688.91 m
-8.66 -7.33 -17.89 -14.38 -26.69 -21.85 c
-8.58 -7.29 -16.48 -14.85 -22.78 -23.08 c
-35.64 -42.19 -58.33 -90.31 -76.5 -140.92 c
-18.35 -51.14 -32.02 -104.26 -50.01 -155.63 c
-0.98 -2.04 p
-7.23 -11.41 -18.89 -22.89 -33.74 -26.04 c
-18.14 -1.73 -32.31 2.7 -44.77 8.6 c
-11.54 5.45 -22.29 12.61 -33.65 18.1 c
-12.87 8.72 -25.12 15.29 -37.6 21.34 c
-12.88 6.23 -26.02 11.9 -38.94 17.83 c
-26.1 11.99 -52.65 25.61 -74.55 47.76 c
-2.22 3.47 p
-9.12 23.92 -3.15 44.83 4.78 63.04 c
3.8 8.74 8.3 17.36 12.29 26.08 c
3.84 8.41 6.87 16.33 8.36 24.28 c
22.82 67.8 62.25 154.48 143.47 180.01 c
36.26 26.64 80.11 33.29 123.67 35.61 c
21.92 1.18 44.32 1.26 66.45 2.08 c
21.53 0.79 42.81 2.27 63.1 6.27 c
2.05 0.19 p
4.34 -0.05 9 0.13 13.68 0.17 c
5.27 0.03 10.56 -0.14 15.54 -0.89 c
10.68 -1.61 22.28 -6.29 28.61 -19.31 c
0.29 -0.6 0.94 -5.76 0.8 -6.4 c
-5.41 -26.07 -22.73 -43.73 -40.37 -58.67 c
f
1875.6 4020.32 m
-8.15 12.73 -21.11 25.69 -34.56 30.24 c
-12.1 2.65 -26.86 2.65 -36 -5.76 c
-4.22 -13.2 -6.33 -26.37 -7.95 -40.27 c
-1.62 -13.9 -2.75 -28.54 -5.01 -44.69 c
-9.29 -48.34 -16.81 -97.35 -26.71 -145.41 c
-9.9 -48.06 -22.18 -95.16 -40.97 -139.7 c
-22.24 -47.79 -19.15 -95.89 -8.44 -143.63 c
10.71 -47.75 29.04 -95.13 37.24 -141.49 c
11.05 -24.73 19.91 -51.23 31.65 -76.29 c
11.75 -25.07 26.38 -48.7 48.99 -67.7 c
14.9 -6.27 32.17 -6.27 47.52 0 c
44.4 29.73 86.88 65.72 132.47 93.6 c
20.94 13.06 42.75 24.18 64.44 35.65 c
21.69 11.47 43.26 23.31 63.72 37.78 c
9.1 10.64 11.98 25.4 8.64 38.89 c
-15.9 28.48 -37.12 52.86 -60.53 75.37 c
-23.41 22.51 -49.02 43.15 -73.7 64.17 c
-49.36 42.02 -95.02 85.54 -112.01 148.44 c
-6.35 22.27 -8.98 45.75 -9.94 69.73 c
-0.95 23.99 -0.24 48.49 0.1 72.81 c
0.67 48.65 -0.17 96.57 -18.95 138.26 c
h
1904.55 3881.92 m
-0.34 -24.14 -1.05 -48.46 -0.11 -72.27 c
0.95 -23.55 3.53 -46.23 9.59 -67.45 c
16.1 -59.63 59.47 -101.46 108.85 -143.51 c
24.83 -21.14 50.59 -41.93 74.15 -64.58 c
23.81 -22.89 45.77 -48.04 62.34 -77.7 c
0.97 -2.47 p
4.04 -16.31 0.65 -34.47 -10.75 -47.79 c
-1.82 -1.66 p
-20.83 -14.73 -42.76 -26.78 -64.83 -38.46 c
-21.48 -11.36 -43.12 -22.39 -63.85 -35.32 c
-45.48 -27.8 -87.87 -63.75 -132.17 -93.4 c
-1.78 -0.95 p
-17.74 -7.24 -37.77 -7.28 -55.18 0.04 c
-2.56 1.56 p
-24.15 20.31 -39.54 45.37 -51.6 71.11 c
-11.77 25.12 -20.65 51.67 -31.73 76.46 c
-0.72 2.34 p
-8.18 46.21 -26.47 93.44 -37.14 141.04 c
-10.92 48.67 -14.47 99.35 9.13 150.04 c
18.35 43.59 30.42 89.85 40.24 137.5 c
9.88 48.01 17.4 96.98 26.68 145.28 c
2.2 15.87 3.3 30.26 4.9 43.96 c
1.69 14.56 3.93 28.33 8.35 42.15 c
0.12 0.35 2.49 4.07 2.76 4.32 c
12.96 11.93 32.15 10.96 44.91 8.17 c
17.55 -5.87 32.09 -20.94 40.84 -34.62 c
20.51 -45.26 21.2 -95.33 20.53 -143.79 c
f
2676.22 4067.84 m
-1.42 4.03 -4.19 10.63 -7.93 14.54 c
-3.73 3.92 -8.43 5.14 -13.67 -1.58 c
-16.53 -54.83 -52.96 -101.59 -96.03 -144.03 c
-43.06 -42.43 -92.75 -80.53 -135.8 -118.04 c
-45.14 -36.1 -62.76 -83.67 -72.7 -134.43 c
-9.95 -50.75 -12.22 -104.7 -26.66 -153.57 c
2.88 -34.56 p
15.34 -22.76 37.86 -25.14 62.2 -22.44 c
12.17 1.35 24.8 3.97 37.22 5.94 c
12.41 1.98 24.62 3.32 35.94 2.1 c
13.24 2.21 26.96 2.51 40.8 2.13 c
13.85 -0.38 27.82 -1.45 41.59 -1.98 c
27.54 -1.08 54.25 -0.05 77.44 12.81 c
7.26 8.11 8.7 18.55 10.08 28.8 c
-9.33 51.93 -25.15 105.97 -33.61 160.51 c
-8.46 54.54 -9.56 109.57 10.57 163.49 c
5.33 18.48 12.65 36.37 20.53 54.09 c
7.88 17.72 16.32 35.27 23.88 53.06 c
15.12 35.6 26.72 72.19 23.27 113.16 c
h
2662.16 3950.77 m
-7.59 -17.84 -16.05 -35.44 -23.96 -53.21 c
-7.69 -17.3 -14.97 -35.12 -20.17 -53.17 c
-19.28 -51.64 -18.52 -105.09 -10.18 -158.82 c
8.45 -54.46 24.26 -108.42 33.58 -160.27 c
0.06 -3.11 p
-0.76 -5.63 -1.57 -11.29 -3.15 -16.68 c
-1.73 -5.89 -4.5 -11.99 -9.38 -17.44 c
-2.6 -2.08 p
-25.8 -14.31 -54.98 -15.15 -82.69 -14.06 c
-13.73 0.53 -27.67 1.6 -41.47 1.98 c
-13.2 0.36 -26.27 0.1 -38.89 -2 c
-2.71 -0.08 p
-9.94 1.07 -21.04 -0.08 -33.3 -2.03 c
-12.57 -2.01 -25.36 -4.65 -37.69 -6.01 c
-25.46 -2.83 -53.04 -0.73 -71.59 26.79 c
-0.2 0.3 -1.65 4.41 -1.68 4.76 c
-2.88 34.56 0.38 3.67 p
14.35 48.57 16.55 102.2 26.43 152.66 c
10.15 51.77 28.46 102.07 76.27 140.31 c
42.84 37.29 92.22 75.17 135.03 117.36 c
42.58 41.95 77.65 87.3 93.48 139.79 c
1.69 3.26 p
9.37 12.02 21.28 10.21 28.79 2.33 c
5.33 -5.59 8.68 -14.01 10.12 -18.12 c
0.54 -2.48 p
3.64 -43.41 -8.71 -81.82 -24.03 -117.91 c
f
cleartomark end end pagesave restore
 showpage
%%PageTrailer
%%Trailer
%%Pages: 1
%%Trailer
cleartomark
countdictstack
exch sub { end } repeat
restore
%%EOF
